user/sim/Apply/Comm/Filter/movAvg.vcd
$date
   Mon Jul  1 22:06:39 2024
$end
$version
  2018.3
$end
$timescale
  1ps
$end
$scope module movAvg_tb $end
$var reg 1 ! clock $end
$var reg 1 " enable $end
$var reg 1 # reset $end
$var reg 32 $ data_in [31:0] $end
$var reg 1 % input_valid $end
$var wire 32 & data_out [31:0] $end
$var wire 1 ' output_valid $end
$var wire 32 ( odata [31:0] $end
$var wire 1 ) ovalid $end
$var parameter 32 * DATA_WIDTH [31:0] $end
$var parameter 32 + WINDOW_SHIFT [31:0] $end
$var parameter 32 , WINDOW_SIZE [31:0] $end
$var parameter 32 - SIGNED [31:0] $end
$scope module u_moving_avg $end
$var wire 1 . clock $end
$var wire 1 / enable $end
$var wire 1 0 reset $end
$var wire 32 1 data_in [31:0] $end
$var wire 1 2 input_strobe $end
$var reg 32 3 data_out [31:0] $end
$var reg 1 4 output_strobe $end
$var reg 34 5 running_sum [33:0] $end
$var wire 32 6 old_data [31:0] $end
$var wire 32 7 new_data [31:0] $end
$var wire 34 8 ext_old_data [33:0] $end
$var wire 34 9 ext_new_data [33:0] $end
$var reg 2 : addr [1:0] $end
$var reg 1 ; full $end
$var integer 32 < i $end
$var parameter 32 = DATA_WIDTH [31:0] $end
$var parameter 32 > WINDOW_SHIFT [31:0] $end
$var parameter 32 ? SIGNED [31:0] $end
$var parameter 32 @ WINDOW_SIZE [31:0] $end
$var parameter 32 A SUM_WIDTH [31:0] $end
$scope module delay_line $end
$var wire 1 . clka $end
$var wire 1 B ena $end
$var wire 1 2 wea $end
$var wire 2 C addra [1:0] $end
$var wire 32 1 dia [31:0] $end
$var reg 32 D doa [31:0] $end
$var wire 1 . clkb $end
$var wire 1 2 enb $end
$var wire 1 E web $end
$var wire 2 F addrb [1:0] $end
$var wire 32 G dib [31:0] $end
$var reg 32 H dob [31:0] $end
$var integer 32 I i $end
$var parameter 32 J DWIDTH [31:0] $end
$var parameter 32 K AWIDTH [31:0] $end
$upscope $end
$upscope $end
$scope module u_movAvg $end
$var wire 1 L clock $end
$var wire 1 M reset $end
$var wire 1 N ivalid $end
$var wire 32 O idata [31:0] $end
$var wire 1 ) ovalid $end
$var wire 32 ( odata [31:0] $end
$var reg 1 P done $end
$var reg 32 Q odata_buf [31:0] $end
$var reg 34 R sum [33:0] $end
$var wire 1 S mvalid $end
$var wire 32 T mdata [31:0] $end
$var wire 34 U ext_old_data [33:0] $end
$var wire 34 V ext_new_data [33:0] $end
$var parameter 32 W WIDTH [31:0] $end
$var parameter 32 X WINDOW [31:0] $end
$var parameter 32 Y SUM_WIDTH [31:0] $end
$scope module u_shiftTaps $end
$var wire 1 L clock $end
$var wire 1 M reset $end
$var wire 1 N ivalid $end
$var wire 32 O shiftin [31:0] $end
$var wire 1 S ovalid $end
$var wire 32 T shiftout [31:0] $end
$var reg 1 Z done $end
$var reg 1 [ valid $end
$var reg 2 \ count [1:0] $end
$var reg 32 ] \BRAM.odata  [31:0] $end
$var integer 32 ^ \BRAM.i  $end
$var parameter 32 _ THRES [31:0] $end
$var parameter 32 ` WIDTH [31:0] $end
$var parameter 32 a SHIFT [31:0] $end
$var parameter 32 b CWIDTH [31:0] $end
$upscope $end
$upscope $end
$scope task input_data $end
$var reg 32 c data [31:0] $end
$upscope $end
$upscope $end
$enddefinitions $end
#0
$dumpvars
0!
0"
1#
b0 $
0%
bx &
x'
b0 (
0)
b100000 *
b10 +
b100 ,
b0 -
0.
0/
10
b0 1
02
bx 3
x4
bx 5
b0 6
b0 7
b0 8
b0 9
bx :
x;
bx <
b100000 =
b10 >
b0 ?
b100 @
b100010 A
1B
bx C
b0 D
0E
bx F
b1111111111111111 G
b0 H
b100 I
b100000 J
b10 K
0L
1M
0N
b0 O
0P
b0 Q
b0 R
0S
b0 T
b0 U
b0 V
b100000 W
b100 X
b100010 Y
0Z
0[
b0 \
b0 ]
b100 ^
b1000000000 _
b100000 `
b100 a
b1 b
bx c
$end
#5000
1!
b0 &
1.
b0 3
b0 5
b0 :
0;
b0 C
bx D
b0 F
1L
b100 ^
#10000
0!
0.
0L
#15000
1!
1.
b0 D
1L
b100 ^
#20000
0!
1"
0#
0.
1/
00
0L
0M
b1 c
#25000
1!
b1 $
1%
0'
1.
b1 1
12
04
b1 7
b1 9
b1 :
b1 C
b1 F
1L
1N
b1 O
b1 V
b1 \
#30000
0!
0.
0L
#35000
1!
0%
1.
02
1L
0N
b10 c
#40000
0!
0.
0L
#45000
1!
b10 $
1%
1.
b10 1
12
b1 5
b10 7
b10 9
b10 :
b10 C
b10 F
1L
1N
b10 O
b1 R
b10 V
b10 \
#50000
0!
0.
0L
#55000
1!
0%
1.
02
1L
0N
b11 c
#60000
0!
0.
0L
#65000
1!
b11 $
1%
1.
b11 1
12
b11 5
b11 7
b11 9
b11 :
b11 C
b11 F
1L
1N
b11 O
b11 R
b11 V
b11 \
#70000
0!
0.
0L
#75000
1!
0%
1.
02
1L
0N
b100 c
#80000
0!
0.
0L
#85000
1!
b100 $
1%
1.
b100 1
12
b110 5
b100 7
b100 9
b0 :
1;
b0 C
b0 F
1L
1N
b100 O
b110 R
b100 V
1Z
b0 \
#90000
0!
0.
0L
#95000
1!
0%
1.
02
b1 D
1L
0N
b101 c
#100000
0!
0.
0L
#105000
1!
b101 $
1%
b1 &
1'
b1 (
1)
1.
b101 1
12
b1 3
14
b1010 5
b1 6
b101 7
b1 8
b101 9
b1 :
b1 C
b1 F
b1 H
1L
1N
b101 O
b1 Q
b1010 R
1S
b1 T
b1 U
b101 V
1[
b1 \
b1 ]
#110000
0!
0.
0L
#115000
1!
0%
0'
0)
1.
02
04
b10 D
1L
0N
1P
0S
0[
b110 c
#120000
0!
0.
0L
#125000
1!
b110 $
1%
b10 &
1'
b10 (
1)
1.
b110 1
12
b10 3
14
b1110 5
b10 6
b110 7
b10 8
b110 9
b10 :
b10 C
b10 F
b10 H
1L
1N
b110 O
b10 Q
b1110 R
1S
b10 T
b10 U
b110 V
1[
b10 \
b10 ]
#130000
0!
0.
0L
#135000
1!
0%
0'
0)
1.
02
04
b11 D
1L
0N
0S
0[
b111 c
#140000
0!
0.
0L
#145000
1!
b111 $
1%
b11 &
1'
b11 (
1)
1.
b111 1
12
b11 3
14
b10010 5
b11 6
b111 7
b11 8
b111 9
b11 :
b11 C
b11 F
b11 H
1L
1N
b111 O
b11 Q
b10010 R
1S
b11 T
b11 U
b111 V
1[
b11 \
b11 ]
#150000
0!
0.
0L
#155000
1!
0%
0'
0)
1.
02
04
b100 D
1L
0N
0S
0[
b1000 c
#160000
0!
0.
0L
#165000
1!
b1000 $
1%
b100 &
1'
b100 (
1)
1.
b1000 1
12
b100 3
14
b10110 5
b100 6
b1000 7
b100 8
b1000 9
b0 :
b0 C
b0 F
b100 H
1L
1N
b1000 O
b100 Q
b10110 R
1S
b100 T
b100 U
b1000 V
1[
b0 \
b100 ]
#170000
0!
0.
0L
#175000
1!
0%
0'
0)
1.
02
04
b101 D
1L
0N
0S
0[
b1001 c
#180000
0!
0.
0L
#185000
1!
b1001 $
1%
b101 &
1'
b101 (
1)
1.
b1001 1
12
b101 3
14
b11010 5
b101 6
b1001 7
b101 8
b1001 9
b1 :
b1 C
b1 F
b101 H
1L
1N
b1001 O
b101 Q
b11010 R
1S
b101 T
b101 U
b1001 V
1[
b1 \
b101 ]
#190000
0!
0.
0L
#195000
1!
0%
0'
0)
1.
02
04
b110 D
1L
0N
0S
0[
b1010 c
#200000
0!
0.
0L
#205000
1!
b1010 $
1%
b110 &
1'
b110 (
1)
1.
b1010 1
12
b110 3
14
b11110 5
b110 6
b1010 7
b110 8
b1010 9
b10 :
b10 C
b10 F
b110 H
1L
1N
b1010 O
b110 Q
b11110 R
1S
b110 T
b110 U
b1010 V
1[
b10 \
b110 ]
#210000
0!
0.
0L
#215000
1!
0%
0'
0)
1.
02
04
b111 D
1L
0N
0S
0[
b1011 c
#220000
0!
0.
0L
#225000
1!
b1011 $
1%
b111 &
1'
b111 (
1)
1.
b1011 1
12
b111 3
14
b100010 5
b111 6
b1011 7
b111 8
b1011 9
b11 :
b11 C
b11 F
b111 H
1L
1N
b1011 O
b111 Q
b100010 R
1S
b111 T
b111 U
b1011 V
1[
b11 \
b111 ]
#230000
0!
0.
0L
#235000
1!
0%
0'
0)
1.
02
04
b1000 D
1L
0N
0S
0[
b1100 c
#240000
0!
0.
0L
#245000
1!
b1100 $
1%
b1000 &
1'
b1000 (
1)
1.
b1100 1
12
b1000 3
14
b100110 5
b1000 6
b1100 7
b1000 8
b1100 9
b0 :
b0 C
b0 F
b1000 H
1L
1N
b1100 O
b1000 Q
b100110 R
1S
b1000 T
b1000 U
b1100 V
1[
b0 \
b1000 ]
#250000
0!
0.
0L
#255000
1!
0%
0'
0)
1.
02
04
b1001 D
1L
0N
0S
0[
b1101 c
#260000
0!
0.
0L
#265000
1!
b1101 $
1%
b1001 &
1'
b1001 (
1)
1.
b1101 1
12
b1001 3
14
b101010 5
b1001 6
b1101 7
b1001 8
b1101 9
b1 :
b1 C
b1 F
b1001 H
1L
1N
b1101 O
b1001 Q
b101010 R
1S
b1001 T
b1001 U
b1101 V
1[
b1 \
b1001 ]
#270000
0!
0.
0L
#275000
1!
0%
0'
0)
1.
02
04
b1010 D
1L
0N
0S
0[
b1110 c
#280000
0!
0.
0L
#285000
1!
b1110 $
1%
b1010 &
1'
b1010 (
1)
1.
b1110 1
12
b1010 3
14
b101110 5
b1010 6
b1110 7
b1010 8
b1110 9
b10 :
b10 C
b10 F
b1010 H
1L
1N
b1110 O
b1010 Q
b101110 R
1S
b1010 T
b1010 U
b1110 V
1[
b10 \
b1010 ]
#290000
0!
0.
0L
#295000
1!
0%
0'
0)
1.
02
04
b1011 D
1L
0N
0S
0[
b1111 c
#300000
0!
0.
0L
#305000
1!
b1111 $
1%
b1011 &
1'
b1011 (
1)
1.
b1111 1
12
b1011 3
14
b110010 5
b1011 6
b1111 7
b1011 8
b1111 9
b11 :
b11 C
b11 F
b1011 H
1L
1N
b1111 O
b1011 Q
b110010 R
1S
b1011 T
b1011 U
b1111 V
1[
b11 \
b1011 ]
#310000
0!
0.
0L
#315000
1!
0%
0'
0)
1.
02
04
b1100 D
1L
0N
0S
0[
b10000 c
#320000
0!
0.
0L
#325000
1!
b10000 $
1%
b1100 &
1'
b1100 (
1)
1.
b10000 1
12
b1100 3
14
b110110 5
b1100 6
b10000 7
b1100 8
b10000 9
b0 :
b0 C
b0 F
b1100 H
1L
1N
b10000 O
b1100 Q
b110110 R
1S
b1100 T
b1100 U
b10000 V
1[
b0 \
b1100 ]
#330000
0!
0.
0L
#335000
1!
0%
0'
0)
1.
02
04
b1101 D
1L
0N
0S
0[
b1 c
#340000
0!
0.
0L
#345000
1!
b1 $
1%
b1101 &
1'
b1101 (
1)
1.
b1 1
12
b1101 3
14
b111010 5
b1101 6
b1 7
b1101 8
b1 9
b1 :
b1 C
b1 F
b1101 H
1L
1N
b1 O
b1101 Q
b111010 R
1S
b1101 T
b1101 U
b1 V
1[
b1 \
b1101 ]
#350000
0!
0.
0L
#355000
1!
0%
0'
0)
1.
02
04
b1110 D
1L
0N
0S
0[
b10 c
#360000
0!
0.
0L
#365000
1!
b10 $
1%
b1110 &
1'
b1110 (
1)
1.
b10 1
12
b1110 3
14
b101110 5
b1110 6
b10 7
b1110 8
b10 9
b10 :
b10 C
b10 F
b1110 H
1L
1N
b10 O
b1110 Q
b101110 R
1S
b1110 T
b1110 U
b10 V
1[
b10 \
b1110 ]
#370000
0!
0.
0L
#375000
1!
0%
0'
0)
1.
02
04
b1111 D
1L
0N
0S
0[
b11 c
#380000
0!
0.
0L
#385000
1!
b11 $
1%
b1011 &
1'
b1011 (
1)
1.
b11 1
12
b1011 3
14
b100010 5
b1111 6
b11 7
b1111 8
b11 9
b11 :
b11 C
b11 F
b1111 H
1L
1N
b11 O
b1011 Q
b100010 R
1S
b1111 T
b1111 U
b11 V
1[
b11 \
b1111 ]
#390000
0!
0.
0L
#395000
1!
0%
0'
0)
1.
02
04
b10000 D
1L
0N
0S
0[
b100 c
#400000
0!
0.
0L
#405000
1!
b100 $
1%
b1000 &
1'
b1000 (
1)
1.
b100 1
12
b1000 3
14
b10110 5
b10000 6
b100 7
b10000 8
b100 9
b0 :
b0 C
b0 F
b10000 H
1L
1N
b100 O
b1000 Q
b10110 R
1S
b10000 T
b10000 U
b100 V
1[
b0 \
b10000 ]
#410000
0!
0.
0L
#415000
1!
0%
0'
0)
1.
02
04
b1 D
1L
0N
0S
0[
b101 c
#420000
0!
0.
0L
#425000
1!
b101 $
1%
b101 &
1'
b101 (
1)
1.
b101 1
12
b101 3
14
b1010 5
b1 6
b101 7
b1 8
b101 9
b1 :
b1 C
b1 F
b1 H
1L
1N
b101 O
b101 Q
b1010 R
1S
b1 T
b1 U
b101 V
1[
b1 \
b1 ]
#430000
0!
0.
0L
#435000
1!
0%
0'
0)
1.
02
04
b10 D
1L
0N
0S
0[
b110 c
#440000
0!
0.
0L
#445000
1!
b110 $
1%
b10 &
1'
b10 (
1)
1.
b110 1
12
b10 3
14
b1110 5
b10 6
b110 7
b10 8
b110 9
b10 :
b10 C
b10 F
b10 H
1L
1N
b110 O
b10 Q
b1110 R
1S
b10 T
b10 U
b110 V
1[
b10 \
b10 ]
#450000
0!
0.
0L
#455000
1!
0%
0'
0)
1.
02
04
b11 D
1L
0N
0S
0[
b111 c
#460000
0!
0.
0L
#465000
1!
b111 $
1%
b11 &
1'
b11 (
1)
1.
b111 1
12
b11 3
14
b10010 5
b11 6
b111 7
b11 8
b111 9
b11 :
b11 C
b11 F
b11 H
1L
1N
b111 O
b11 Q
b10010 R
1S
b11 T
b11 U
b111 V
1[
b11 \
b11 ]
#470000
0!
0.
0L
#475000
1!
0%
0'
0)
1.
02
04
b100 D
1L
0N
0S
0[
b1000 c
#480000
0!
0.
0L
#485000
1!
b1000 $
1%
b100 &
1'
b100 (
1)
1.
b1000 1
12
b100 3
14
b10110 5
b100 6
b1000 7
b100 8
b1000 9
b0 :
b0 C
b0 F
b100 H
1L
1N
b1000 O
b100 Q
b10110 R
1S
b100 T
b100 U
b1000 V
1[
b0 \
b100 ]
#490000
0!
0.
0L
#495000
1!
0%
0'
0)
1.
02
04
b101 D
1L
0N
0S
0[
b1001 c
#500000
0!
0.
0L
#505000
1!
b1001 $
1%
b101 &
1'
b101 (
1)
1.
b1001 1
12
b101 3
14
b11010 5
b101 6
b1001 7
b101 8
b1001 9
b1 :
b1 C
b1 F
b101 H
1L
1N
b1001 O
b101 Q
b11010 R
1S
b101 T
b101 U
b1001 V
1[
b1 \
b101 ]
#510000
0!
0.
0L
#515000
1!
0%
0'
0)
1.
02
04
b110 D
1L
0N
0S
0[
b1010 c
#520000
0!
0.
0L
#525000
1!
b1010 $
1%
b110 &
1'
b110 (
1)
1.
b1010 1
12
b110 3
14
b11110 5
b110 6
b1010 7
b110 8
b1010 9
b10 :
b10 C
b10 F
b110 H
1L
1N
b1010 O
b110 Q
b11110 R
1S
b110 T
b110 U
b1010 V
1[
b10 \
b110 ]
#530000
0!
0.
0L
#535000
1!
0%
0'
0)
1.
02
04
b111 D
1L
0N
0S
0[
b1011 c
#540000
0!
0.
0L
#545000
1!
b1011 $
1%
b111 &
1'
b111 (
1)
1.
b1011 1
12
b111 3
14
b100010 5
b111 6
b1011 7
b111 8
b1011 9
b11 :
b11 C
b11 F
b111 H
1L
1N
b1011 O
b111 Q
b100010 R
1S
b111 T
b111 U
b1011 V
1[
b11 \
b111 ]
#550000
0!
0.
0L
#555000
1!
0%
0'
0)
1.
02
04
b1000 D
1L
0N
0S
0[
b1100 c
#560000
0!
0.
0L
#565000
1!
b1100 $
1%
b1000 &
1'
b1000 (
1)
1.
b1100 1
12
b1000 3
14
b100110 5
b1000 6
b1100 7
b1000 8
b1100 9
b0 :
b0 C
b0 F
b1000 H
1L
1N
b1100 O
b1000 Q
b100110 R
1S
b1000 T
b1000 U
b1100 V
1[
b0 \
b1000 ]
#570000
0!
0.
0L
#575000
1!
0%
0'
0)
1.
02
04
b1001 D
1L
0N
0S
0[
b1101 c
#580000
0!
0.
0L
#585000
1!
b1101 $
1%
b1001 &
1'
b1001 (
1)
1.
b1101 1
12
b1001 3
14
b101010 5
b1001 6
b1101 7
b1001 8
b1101 9
b1 :
b1 C
b1 F
b1001 H
1L
1N
b1101 O
b1001 Q
b101010 R
1S
b1001 T
b1001 U
b1101 V
1[
b1 \
b1001 ]
#590000
0!
0.
0L
#595000
1!
0%
0'
0)
1.
02
04
b1010 D
1L
0N
0S
0[
b1110 c
#600000
0!
0.
0L
#605000
1!
b1110 $
1%
b1010 &
1'
b1010 (
1)
1.
b1110 1
12
b1010 3
14
b101110 5
b1010 6
b1110 7
b1010 8
b1110 9
b10 :
b10 C
b10 F
b1010 H
1L
1N
b1110 O
b1010 Q
b101110 R
1S
b1010 T
b1010 U
b1110 V
1[
b10 \
b1010 ]
#610000
0!
0.
0L
#615000
1!
0%
0'
0)
1.
02
04
b1011 D
1L
0N
0S
0[
b1111 c
#620000
0!
0.
0L
#625000
1!
b1111 $
1%
b1011 &
1'
b1011 (
1)
1.
b1111 1
12
b1011 3
14
b110010 5
b1011 6
b1111 7
b1011 8
b1111 9
b11 :
b11 C
b11 F
b1011 H
1L
1N
b1111 O
b1011 Q
b110010 R
1S
b1011 T
b1011 U
b1111 V
1[
b11 \
b1011 ]
#630000
0!
0.
0L
#635000
1!
0%
0'
0)
1.
02
04
b1100 D
1L
0N
0S
0[
b10000 c
#640000
0!
0.
0L
#645000
1!
b10000 $
1%
b1100 &
1'
b1100 (
1)
1.
b10000 1
12
b1100 3
14
b110110 5
b1100 6
b10000 7
b1100 8
b10000 9
b0 :
b0 C
b0 F
b1100 H
1L
1N
b10000 O
b1100 Q
b110110 R
1S
b1100 T
b1100 U
b10000 V
1[
b0 \
b1100 ]
#650000
0!
0.
0L
#655000
1!
0%
0'
0)
1.
02
04
b1101 D
1L
0N
0S
0[
b100000 c
#660000
0!
0.
0L
#665000
1!
b100000 $
1%
b1101 &
1'
b1101 (
1)
1.
b100000 1
12
b1101 3
14
b111010 5
b1101 6
b100000 7
b1101 8
b100000 9
b1 :
b1 C
b1 F
b1101 H
1L
1N
b100000 O
b1101 Q
b111010 R
1S
b1101 T
b1101 U
b100000 V
1[
b1 \
b1101 ]
#670000
0!
0.
0L
#675000
1!
0%
0'
0)
1.
02
04
b1110 D
1L
0N
0S
0[
b110000 c
#680000
0!
0.
0L
#685000
1!
b110000 $
1%
b1110 &
1'
b1110 (
1)
1.
b110000 1
12
b1110 3
14
b1001101 5
b1110 6
b110000 7
b1110 8
b110000 9
b10 :
b10 C
b10 F
b1110 H
1L
1N
b110000 O
b1110 Q
b1001101 R
1S
b1110 T
b1110 U
b110000 V
1[
b10 \
b1110 ]
#690000
0!
0.
0L
#695000
1!
0%
0'
0)
1.
02
04
b1111 D
1L
0N
0S
0[
b1000000 c
#700000
0!
0.
0L
#705000
1!
b1000000 $
1%
b10011 &
1'
b10011 (
1)
1.
b1000000 1
12
b10011 3
14
b1101111 5
b1111 6
b1000000 7
b1111 8
b1000000 9
b11 :
b11 C
b11 F
b1111 H
1L
1N
b1000000 O
b10011 Q
b1101111 R
1S
b1111 T
b1111 U
b1000000 V
1[
b11 \
b1111 ]
#710000
0!
0.
0L
#715000
1!
0%
0'
0)
1.
02
04
b10000 D
1L
0N
0S
0[
b1010000 c
#720000
0!
0.
0L
#725000
1!
b1010000 $
1%
b11011 &
1'
b11011 (
1)
1.
b1010000 1
12
b11011 3
14
b10100000 5
b10000 6
b1010000 7
b10000 8
b1010000 9
b0 :
b0 C
b0 F
b10000 H
1L
1N
b1010000 O
b11011 Q
b10100000 R
1S
b10000 T
b10000 U
b1010000 V
1[
b0 \
b10000 ]
#730000
0!
0.
0L
#735000
1!
0%
0'
0)
1.
02
04
b100000 D
1L
0N
0S
0[
b1100000 c
#740000
0!
0.
0L
#745000
1!
b1100000 $
1%
b101000 &
1'
b101000 (
1)
1.
b1100000 1
12
b101000 3
14
b11100000 5
b100000 6
b1100000 7
b100000 8
b1100000 9
b1 :
b1 C
b1 F
b100000 H
1L
1N
b1100000 O
b101000 Q
b11100000 R
1S
b100000 T
b100000 U
b1100000 V
1[
b1 \
b100000 ]
#750000
0!
0.
0L
#755000
1!
0%
0'
0)
1.
02
04
b110000 D
1L
0N
0S
0[
