user/sim/Basic/Memory/RAM/Shift/shiftTaps.vcd
$date
   Wed Jun 19 16:50:41 2024
$end
$version
  2018.3
$end
$timescale
  1ps
$end
$scope module ShiftTaps_tb $end
$var reg 1 ! sys_clk $end
$var reg 1 " sys_rst $end
$var reg 32 # data [31:0] $end
$var wire 32 $ shiftout [31:0] $end
$var wire 32 % odata [31:0] $end
$var wire 32 & data_out [31:0] $end
$var wire 1 ' output_valid $end
$var wire 1 ( ovalid $end
$var parameter 32 ) DATA_WIDTH [31:0] $end
$var parameter 32 * ADDR_WIDTH [31:0] $end
$var parameter 32 + MAIN_FRE [31:0] $end
$scope module u_ShiftTaps $end
$var wire 1 , clock $end
$var wire 1 - reset $end
$var wire 1 . ivalid $end
$var wire 32 / shiftin [31:0] $end
$var wire 1 ( ovalid $end
$var wire 32 $ shiftout [31:0] $end
$var reg 32 0 RAM_CNT [31:0] $end
$var reg 32 1 ram_buf [31:0] $end
$var reg 32 2 shift_buf [31:0] $end
$var reg 5 3 ovalid_buf [4:0] $end
$var integer 32 4 i $end
$var parameter 32 5 WIDTH [31:0] $end
$var parameter 32 6 SHIFT [31:0] $end
$upscope $end
$scope module u_delay $end
$var wire 1 7 clock $end
$var wire 1 8 reset $end
$var wire 32 9 idata [31:0] $end
$var wire 32 % odata [31:0] $end
$var integer 32 : i $end
$var parameter 32 ; WIDTH [31:0] $end
$var parameter 32 < DELAY [31:0] $end
$upscope $end
$scope module u_delay_sample $end
$var wire 1 = clock $end
$var wire 1 > enable $end
$var wire 1 ? reset $end
$var wire 32 @ data_in [31:0] $end
$var wire 1 A input_valid $end
$var wire 32 & data_out [31:0] $end
$var reg 1 B output_valid $end
$var reg 2 C addr [1:0] $end
$var reg 1 D full $end
$var parameter 32 E DATA_WIDTH [31:0] $end
$var parameter 32 F DELAY_SHIFT [31:0] $end
$var parameter 32 G DELAY_SIZE [31:0] $end
$scope module delay_line $end
$var wire 1 = clka $end
$var wire 1 H ena $end
$var wire 1 A wea $end
$var wire 2 I addra [1:0] $end
$var wire 32 @ dia [31:0] $end
$var reg 32 J doa [31:0] $end
$var wire 1 = clkb $end
$var wire 1 A enb $end
$var wire 1 K web $end
$var wire 2 L addrb [1:0] $end
$var wire 32 M dib [31:0] $end
$var reg 32 N dob [31:0] $end
$var integer 32 O i $end
$var parameter 32 P WIDTH [31:0] $end
$var parameter 32 Q DEPTH [31:0] $end
$upscope $end
$upscope $end
$upscope $end
$enddefinitions $end
#0
$dumpvars
0!
1"
b0 #
bx $
bx %
b0 &
x'
x(
b100000 )
b11 *
b1100100 +
0,
1-
0.
b0 /
bx 0
bx 1
bx 2
bx 3
bx 4
b100000 5
b100 6
07
18
b0 9
bx :
b100000 ;
b100 <
0=
0>
1?
b0 @
0A
xB
bx C
xD
b100000 E
b10 F
b100 G
1H
bx I
b0 J
0K
bx L
b1111111111111111 M
b0 N
b100 O
b100000 P
b100 Q
$end
#5000
1!
b0 #
b0 $
b0 %
0(
1,
b0 0
b0 2
b0 3
b100 4
17
b100 :
1=
b0 C
0D
b0 I
bx J
b0 L
#10000
0!
0,
07
0=
#15000
1!
b0 #
1,
b100 4
17
b100 :
1=
b0 J
#20000
0!
0,
07
0=
#25000
1!
b0 #
1,
b100 4
17
b100 :
1=
#30000
0!
0,
07
0=
#35000
1!
b0 #
1,
b100 4
17
b100 :
1=
#40000
0!
0,
07
0=
#45000
1!
b0 #
1,
b100 4
17
b100 :
1=
#50000
0!
0"
0,
0-
1.
07
08
0=
1>
0?
1A
#55000
1!
b1 #
0'
1,
b1 /
b1 0
b1 3
17
b1 9
b100 :
1=
b1 @
0B
b1 C
b1 I
b1 L
#60000
0!
0,
07
0=
#65000
1!
b10 #
1,
b10 /
b10 0
b11 3
17
b10 9
b100 :
1=
b10 @
b10 C
b10 I
b10 L
#70000
0!
0,
07
0=
#75000
1!
b11 #
1,
b11 /
b11 0
b111 3
17
b11 9
b100 :
1=
b11 @
b11 C
b11 I
b11 L
#80000
0!
0,
07
0=
#85000
1!
b100 #
b1 %
1,
b100 /
b0 0
b1111 3
17
b100 9
b100 :
1=
b100 @
b0 C
1D
b0 I
b0 L
#90000
0!
0,
07
0=
#95000
1!
b101 #
b1 $
b10 %
b1 &
1'
1(
1,
b101 /
b1 0
b1 2
b11111 3
17
b101 9
b100 :
1=
b101 @
1B
b1 C
b1 I
b1 J
b1 L
b1 N
#100000
0!
0,
07
0=
#105000
1!
b110 #
b10 $
b11 %
b10 &
1,
b110 /
b10 0
b10 2
17
b110 9
b100 :
1=
b110 @
b10 C
b10 I
b10 J
b10 L
b10 N
#110000
0!
0,
07
0=
#115000
1!
b111 #
b11 $
b100 %
b11 &
1,
b111 /
b11 0
b11 2
17
b111 9
b100 :
1=
b111 @
b11 C
b11 I
b11 J
b11 L
b11 N
#120000
0!
0,
07
0=
#125000
1!
b1000 #
b100 $
b101 %
b100 &
1,
b1000 /
b0 0
b100 2
17
b1000 9
b100 :
1=
b1000 @
b0 C
b0 I
b100 J
b0 L
b100 N
#130000
0!
0,
07
0=
#135000
1!
b1001 #
b101 $
b110 %
b101 &
1,
b1001 /
b1 0
b101 2
17
b1001 9
b100 :
1=
b1001 @
b1 C
b1 I
b101 J
b1 L
b101 N
#140000
0!
0,
07
0=
#145000
1!
b1010 #
b110 $
b111 %
b110 &
1,
b1010 /
b10 0
b110 2
17
b1010 9
b100 :
1=
b1010 @
b10 C
b10 I
b110 J
b10 L
b110 N
#150000
0!
0,
07
0=
#155000
1!
b1011 #
b111 $
b1000 %
b111 &
1,
b1011 /
b11 0
b111 2
17
b1011 9
b100 :
1=
b1011 @
b11 C
b11 I
b111 J
b11 L
b111 N
#160000
0!
0,
07
0=
#165000
1!
b1100 #
b1000 $
b1001 %
b1000 &
1,
b1100 /
b0 0
b1000 2
17
b1100 9
b100 :
1=
b1100 @
b0 C
b0 I
b1000 J
b0 L
b1000 N
#170000
0!
0,
07
0=
#175000
1!
b1101 #
b1001 $
b1010 %
b1001 &
1,
b1101 /
b1 0
b1001 2
17
b1101 9
b100 :
1=
b1101 @
b1 C
b1 I
b1001 J
b1 L
b1001 N
#180000
0!
0,
07
0=
#185000
1!
b1110 #
b1010 $
b1011 %
b1010 &
1,
b1110 /
b10 0
b1010 2
17
b1110 9
b100 :
1=
b1110 @
b10 C
b10 I
b1010 J
b10 L
b1010 N
#190000
0!
0,
07
0=
#195000
1!
b1111 #
b1011 $
b1100 %
b1011 &
1,
b1111 /
b11 0
b1011 2
17
b1111 9
b100 :
1=
b1111 @
b11 C
b11 I
b1011 J
b11 L
b1011 N
#200000
0!
0,
07
0=
#205000
1!
b10000 #
b1100 $
b1101 %
b1100 &
1,
b10000 /
b0 0
b1100 2
17
b10000 9
b100 :
1=
b10000 @
b0 C
b0 I
b1100 J
b0 L
b1100 N
#210000
0!
0,
07
0=
#215000
1!
b10001 #
b1101 $
b1110 %
b1101 &
1,
b10001 /
b1 0
b1101 2
17
b10001 9
b100 :
1=
b10001 @
b1 C
b1 I
b1101 J
b1 L
b1101 N
#220000
0!
0,
07
0=
#225000
1!
b10010 #
b1110 $
b1111 %
b1110 &
1,
b10010 /
b10 0
b1110 2
17
b10010 9
b100 :
1=
b10010 @
b10 C
b10 I
b1110 J
b10 L
b1110 N
#230000
0!
0,
07
0=
#235000
1!
b10011 #
b1111 $
b10000 %
b1111 &
1,
b10011 /
b11 0
b1111 2
17
b10011 9
b100 :
1=
b10011 @
b11 C
b11 I
b1111 J
b11 L
b1111 N
#240000
0!
0,
07
0=
#245000
1!
b10100 #
b10000 $
b10001 %
b10000 &
1,
b10100 /
b0 0
b10000 2
17
b10100 9
b100 :
1=
b10100 @
b0 C
b0 I
b10000 J
b0 L
b10000 N
#250000
0!
0,
07
0=
#255000
1!
b10101 #
b10001 $
b10010 %
b10001 &
1,
b10101 /
b1 0
b10001 2
17
b10101 9
b100 :
1=
b10101 @
b1 C
b1 I
b10001 J
b1 L
b10001 N
#260000
0!
0,
07
0=
#265000
1!
b10110 #
b10010 $
b10011 %
b10010 &
1,
b10110 /
b10 0
b10010 2
17
b10110 9
b100 :
1=
b10110 @
b10 C
b10 I
b10010 J
b10 L
b10010 N
#270000
0!
0,
07
0=
#275000
1!
b10111 #
b10011 $
b10100 %
b10011 &
1,
b10111 /
b11 0
b10011 2
17
b10111 9
b100 :
1=
b10111 @
b11 C
b11 I
b10011 J
b11 L
b10011 N
#280000
0!
0,
07
0=
#285000
1!
b11000 #
b10100 $
b10101 %
b10100 &
1,
b11000 /
b0 0
b10100 2
17
b11000 9
b100 :
1=
b11000 @
b0 C
b0 I
b10100 J
b0 L
b10100 N
#290000
0!
0,
07
0=
#295000
1!
b11001 #
b10101 $
b10110 %
b10101 &
1,
b11001 /
b1 0
b10101 2
17
b11001 9
b100 :
1=
b11001 @
b1 C
b1 I
b10101 J
b1 L
b10101 N
#300000
0!
0,
07
0=
#305000
1!
b11010 #
b10110 $
b10111 %
b10110 &
1,
b11010 /
b10 0
b10110 2
17
b11010 9
b100 :
1=
b11010 @
b10 C
b10 I
b10110 J
b10 L
b10110 N
#310000
0!
0,
07
0=
#315000
1!
b11011 #
b10111 $
b11000 %
b10111 &
1,
b11011 /
b11 0
b10111 2
17
b11011 9
b100 :
1=
b11011 @
b11 C
b11 I
b10111 J
b11 L
b10111 N
#320000
0!
0,
07
0=
#325000
1!
b11100 #
b11000 $
b11001 %
b11000 &
1,
b11100 /
b0 0
b11000 2
17
b11100 9
b100 :
1=
b11100 @
b0 C
b0 I
b11000 J
b0 L
b11000 N
#330000
0!
0,
07
0=
#335000
1!
b11101 #
b11001 $
b11010 %
b11001 &
1,
b11101 /
b1 0
b11001 2
17
b11101 9
b100 :
1=
b11101 @
b1 C
b1 I
b11001 J
b1 L
b11001 N
#340000
0!
0,
07
0=
#345000
1!
b11110 #
b11010 $
b11011 %
b11010 &
1,
b11110 /
b10 0
b11010 2
17
b11110 9
b100 :
1=
b11110 @
b10 C
b10 I
b11010 J
b10 L
b11010 N
#350000
0!
0,
07
0=
#355000
1!
b11111 #
b11011 $
b11100 %
b11011 &
1,
b11111 /
b11 0
b11011 2
17
b11111 9
b100 :
1=
b11111 @
b11 C
b11 I
b11011 J
b11 L
b11011 N
#360000
0!
0,
07
0=
#365000
1!
b100000 #
b11100 $
b11101 %
b11100 &
1,
b100000 /
b0 0
b11100 2
17
b100000 9
b100 :
1=
b100000 @
b0 C
b0 I
b11100 J
b0 L
b11100 N
#370000
0!
0,
07
0=
#375000
1!
b100001 #
b11101 $
b11110 %
b11101 &
1,
b100001 /
b1 0
b11101 2
17
b100001 9
b100 :
1=
b100001 @
b1 C
b1 I
b11101 J
b1 L
b11101 N
#380000
0!
0,
07
0=
#385000
1!
b100010 #
b11110 $
b11111 %
b11110 &
1,
b100010 /
b10 0
b11110 2
17
b100010 9
b100 :
1=
b100010 @
b10 C
b10 I
b11110 J
b10 L
b11110 N
#390000
0!
0,
07
0=
#395000
1!
b100011 #
b11111 $
b100000 %
b11111 &
1,
b100011 /
b11 0
b11111 2
17
b100011 9
b100 :
1=
b100011 @
b11 C
b11 I
b11111 J
b11 L
b11111 N
#400000
0!
0,
07
0=
#405000
1!
b100100 #
b100000 $
b100001 %
b100000 &
1,
b100100 /
b0 0
b100000 2
17
b100100 9
b100 :
1=
b100100 @
b0 C
b0 I
b100000 J
b0 L
b100000 N
#410000
0!
0,
07
0=
#415000
1!
b100101 #
b100001 $
b100010 %
b100001 &
1,
b100101 /
b1 0
b100001 2
17
b100101 9
b100 :
1=
b100101 @
b1 C
b1 I
b100001 J
b1 L
b100001 N
#420000
0!
0,
07
0=
#425000
1!
b100110 #
b100010 $
b100011 %
b100010 &
1,
b100110 /
b10 0
b100010 2
17
b100110 9
b100 :
1=
b100110 @
b10 C
b10 I
b100010 J
b10 L
b100010 N
#430000
0!
0,
07
0=
#435000
1!
b100111 #
b100011 $
b100100 %
b100011 &
1,
b100111 /
b11 0
b100011 2
17
b100111 9
b100 :
1=
b100111 @
b11 C
b11 I
b100011 J
b11 L
b100011 N
#440000
0!
0,
07
0=
#445000
1!
b101000 #
b100100 $
b100101 %
b100100 &
1,
b101000 /
b0 0
b100100 2
17
b101000 9
b100 :
1=
b101000 @
b0 C
b0 I
b100100 J
b0 L
b100100 N
#450000
0!
0,
07
0=
#455000
1!
b101001 #
b100101 $
b100110 %
b100101 &
1,
b101001 /
b1 0
b100101 2
17
b101001 9
b100 :
1=
b101001 @
b1 C
b1 I
b100101 J
b1 L
b100101 N
#460000
0!
0,
07
0=
#465000
1!
b101010 #
b100110 $
b100111 %
b100110 &
1,
b101010 /
b10 0
b100110 2
17
b101010 9
b100 :
1=
b101010 @
b10 C
b10 I
b100110 J
b10 L
b100110 N
#470000
0!
0,
07
0=
#475000
1!
b101011 #
b100111 $
b101000 %
b100111 &
1,
b101011 /
b11 0
b100111 2
17
b101011 9
b100 :
1=
b101011 @
b11 C
b11 I
b100111 J
b11 L
b100111 N
#480000
0!
0,
07
0=
#485000
1!
b101100 #
b101000 $
b101001 %
b101000 &
1,
b101100 /
b0 0
b101000 2
17
b101100 9
b100 :
1=
b101100 @
b0 C
b0 I
b101000 J
b0 L
b101000 N
#490000
0!
0,
07
0=
#495000
1!
b101101 #
b101001 $
b101010 %
b101001 &
1,
b101101 /
b1 0
b101001 2
17
b101101 9
b100 :
1=
b101101 @
b1 C
b1 I
b101001 J
b1 L
b101001 N
#500000
0!
0,
07
0=
#505000
1!
b101110 #
b101010 $
b101011 %
b101010 &
1,
b101110 /
b10 0
b101010 2
17
b101110 9
b100 :
1=
b101110 @
b10 C
b10 I
b101010 J
b10 L
b101010 N
#510000
0!
0,
07
0=
#515000
1!
b101111 #
b101011 $
b101100 %
b101011 &
1,
b101111 /
b11 0
b101011 2
17
b101111 9
b100 :
1=
b101111 @
b11 C
b11 I
b101011 J
b11 L
b101011 N
#520000
0!
0,
07
0=
#525000
1!
b110000 #
b101100 $
b101101 %
b101100 &
1,
b110000 /
b0 0
b101100 2
17
b110000 9
b100 :
1=
b110000 @
b0 C
b0 I
b101100 J
b0 L
b101100 N
#530000
0!
0,
07
0=
#535000
1!
b110001 #
b101101 $
b101110 %
b101101 &
1,
b110001 /
b1 0
b101101 2
17
b110001 9
b100 :
1=
b110001 @
b1 C
b1 I
b101101 J
b1 L
b101101 N
#540000
0!
0,
07
0=
#545000
1!
b110010 #
b101110 $
b101111 %
b101110 &
1,
b110010 /
b10 0
b101110 2
17
b110010 9
b100 :
1=
b110010 @
b10 C
b10 I
b101110 J
b10 L
b101110 N
#550000
0!
0,
07
0=
#555000
1!
b110011 #
b101111 $
b110000 %
b101111 &
1,
b110011 /
b11 0
b101111 2
17
b110011 9
b100 :
1=
b110011 @
b11 C
b11 I
b101111 J
b11 L
b101111 N
#560000
0!
0,
07
0=
#565000
1!
b110100 #
b110000 $
b110001 %
b110000 &
1,
b110100 /
b0 0
b110000 2
17
b110100 9
b100 :
1=
b110100 @
b0 C
b0 I
b110000 J
b0 L
b110000 N
#570000
0!
0,
07
0=
#575000
1!
b110101 #
b110001 $
b110010 %
b110001 &
1,
b110101 /
b1 0
b110001 2
17
b110101 9
b100 :
1=
b110101 @
b1 C
b1 I
b110001 J
b1 L
b110001 N
#580000
0!
0,
07
0=
#585000
1!
b110110 #
b110010 $
b110011 %
b110010 &
1,
b110110 /
b10 0
b110010 2
17
b110110 9
b100 :
1=
b110110 @
b10 C
b10 I
b110010 J
b10 L
b110010 N
#590000
0!
0,
07
0=
#595000
1!
b110111 #
b110011 $
b110100 %
b110011 &
1,
b110111 /
b11 0
b110011 2
17
b110111 9
b100 :
1=
b110111 @
b11 C
b11 I
b110011 J
b11 L
b110011 N
#600000
0!
0,
07
0=
#605000
1!
b111000 #
b110100 $
b110101 %
b110100 &
1,
b111000 /
b0 0
b110100 2
17
b111000 9
b100 :
1=
b111000 @
b0 C
b0 I
b110100 J
b0 L
b110100 N
#610000
0!
0,
07
0=
#615000
1!
b111001 #
b110101 $
b110110 %
b110101 &
1,
b111001 /
b1 0
b110101 2
17
b111001 9
b100 :
1=
b111001 @
b1 C
b1 I
b110101 J
b1 L
b110101 N
#620000
0!
0,
07
0=
#625000
1!
b111010 #
b110110 $
b110111 %
b110110 &
1,
b111010 /
b10 0
b110110 2
17
b111010 9
b100 :
1=
b111010 @
b10 C
b10 I
b110110 J
b10 L
b110110 N
#630000
0!
0,
07
0=
#635000
1!
b111011 #
b110111 $
b111000 %
b110111 &
1,
b111011 /
b11 0
b110111 2
17
b111011 9
b100 :
1=
b111011 @
b11 C
b11 I
b110111 J
b11 L
b110111 N
#640000
0!
0,
07
0=
#645000
1!
b111100 #
b111000 $
b111001 %
b111000 &
1,
b111100 /
b0 0
b111000 2
17
b111100 9
b100 :
1=
b111100 @
b0 C
b0 I
b111000 J
b0 L
b111000 N
#650000
0!
0,
07
0=
#655000
1!
b111101 #
b111001 $
b111010 %
b111001 &
1,
b111101 /
b1 0
b111001 2
17
b111101 9
b100 :
1=
b111101 @
b1 C
b1 I
b111001 J
b1 L
b111001 N
#660000
0!
0,
07
0=
#665000
1!
b111110 #
b111010 $
b111011 %
b111010 &
1,
b111110 /
b10 0
b111010 2
17
b111110 9
b100 :
1=
b111110 @
b10 C
b10 I
b111010 J
b10 L
b111010 N
#670000
0!
0,
07
0=
#675000
1!
b111111 #
b111011 $
b111100 %
b111011 &
1,
b111111 /
b11 0
b111011 2
17
b111111 9
b100 :
1=
b111111 @
b11 C
b11 I
b111011 J
b11 L
b111011 N
#680000
0!
0,
07
0=
#685000
1!
b1000000 #
b111100 $
b111101 %
b111100 &
1,
b1000000 /
b0 0
b111100 2
17
b1000000 9
b100 :
1=
b1000000 @
b0 C
b0 I
b111100 J
b0 L
b111100 N
#690000
0!
0,
07
0=
#695000
1!
b1000001 #
b111101 $
b111110 %
b111101 &
1,
b1000001 /
b1 0
b111101 2
17
b1000001 9
b100 :
1=
b1000001 @
b1 C
b1 I
b111101 J
b1 L
b111101 N
#700000
0!
0,
07
0=
#705000
1!
b1000010 #
b111110 $
b111111 %
b111110 &
1,
b1000010 /
b10 0
b111110 2
17
b1000010 9
b100 :
1=
b1000010 @
b10 C
b10 I
b111110 J
b10 L
b111110 N
#710000
0!
0,
07
0=
#715000
1!
b1000011 #
b111111 $
b1000000 %
b111111 &
1,
b1000011 /
b11 0
b111111 2
17
b1000011 9
b100 :
1=
b1000011 @
b11 C
b11 I
b111111 J
b11 L
b111111 N
#720000
0!
0,
07
0=
#725000
1!
b1000100 #
b1000000 $
b1000001 %
b1000000 &
1,
b1000100 /
b0 0
b1000000 2
17
b1000100 9
b100 :
1=
b1000100 @
b0 C
b0 I
b1000000 J
b0 L
b1000000 N
#730000
0!
0,
07
0=
#735000
1!
b1000101 #
b1000001 $
b1000010 %
b1000001 &
1,
b1000101 /
b1 0
b1000001 2
17
b1000101 9
b100 :
1=
b1000101 @
b1 C
b1 I
b1000001 J
b1 L
b1000001 N
#740000
0!
0,
07
0=
#745000
1!
b1000110 #
b1000010 $
b1000011 %
b1000010 &
1,
b1000110 /
b10 0
b1000010 2
17
b1000110 9
b100 :
1=
b1000110 @
b10 C
b10 I
b1000010 J
b10 L
b1000010 N
#750000
0!
0,
07
0=
#755000
1!
b1000111 #
b1000011 $
b1000100 %
b1000011 &
1,
b1000111 /
b11 0
b1000011 2
17
b1000111 9
b100 :
1=
b1000111 @
b11 C
b11 I
b1000011 J
b11 L
b1000011 N
#760000
0!
0,
07
0=
#765000
1!
b1001000 #
b1000100 $
b1000101 %
b1000100 &
1,
b1001000 /
b0 0
b1000100 2
17
b1001000 9
b100 :
1=
b1001000 @
b0 C
b0 I
b1000100 J
b0 L
b1000100 N
#770000
0!
0,
07
0=
#775000
1!
b1001001 #
b1000101 $
b1000110 %
b1000101 &
1,
b1001001 /
b1 0
b1000101 2
17
b1001001 9
b100 :
1=
b1001001 @
b1 C
b1 I
b1000101 J
b1 L
b1000101 N
#780000
0!
0,
07
0=
#785000
1!
b1001010 #
b1000110 $
b1000111 %
b1000110 &
1,
b1001010 /
b10 0
b1000110 2
17
b1001010 9
b100 :
1=
b1001010 @
b10 C
b10 I
b1000110 J
b10 L
b1000110 N
#790000
0!
0,
07
0=
#795000
1!
b1001011 #
b1000111 $
b1001000 %
b1000111 &
1,
b1001011 /
b11 0
b1000111 2
17
b1001011 9
b100 :
1=
b1001011 @
b11 C
b11 I
b1000111 J
b11 L
b1000111 N
#800000
0!
0,
07
0=
#805000
1!
b1001100 #
b1001000 $
b1001001 %
b1001000 &
1,
b1001100 /
b0 0
b1001000 2
17
b1001100 9
b100 :
1=
b1001100 @
b0 C
b0 I
b1001000 J
b0 L
b1001000 N
#810000
0!
0,
07
0=
#815000
1!
b1001101 #
b1001001 $
b1001010 %
b1001001 &
1,
b1001101 /
b1 0
b1001001 2
17
b1001101 9
b100 :
1=
b1001101 @
b1 C
b1 I
b1001001 J
b1 L
b1001001 N
#820000
0!
0,
07
0=
#825000
1!
b1001110 #
b1001010 $
b1001011 %
b1001010 &
1,
b1001110 /
b10 0
b1001010 2
17
b1001110 9
b100 :
1=
b1001110 @
b10 C
b10 I
b1001010 J
b10 L
b1001010 N
#830000
0!
0,
07
0=
#835000
1!
b1001111 #
b1001011 $
b1001100 %
b1001011 &
1,
b1001111 /
b11 0
b1001011 2
17
b1001111 9
b100 :
1=
b1001111 @
b11 C
b11 I
b1001011 J
b11 L
b1001011 N
#840000
0!
0,
07
0=
#845000
1!
b1010000 #
b1001100 $
b1001101 %
b1001100 &
1,
b1010000 /
b0 0
b1001100 2
17
b1010000 9
b100 :
1=
b1010000 @
b0 C
b0 I
b1001100 J
b0 L
b1001100 N
#850000
0!
0,
07
0=
#855000
1!
b1010001 #
b1001101 $
b1001110 %
b1001101 &
1,
b1010001 /
b1 0
b1001101 2
17
b1010001 9
b100 :
1=
b1010001 @
b1 C
b1 I
b1001101 J
b1 L
b1001101 N
#860000
0!
0,
07
0=
#865000
1!
b1010010 #
b1001110 $
b1001111 %
b1001110 &
1,
b1010010 /
b10 0
b1001110 2
17
b1010010 9
b100 :
1=
b1010010 @
b10 C
b10 I
b1001110 J
b10 L
b1001110 N
#870000
0!
0,
07
0=
#875000
1!
b1010011 #
b1001111 $
b1010000 %
b1001111 &
1,
b1010011 /
b11 0
b1001111 2
17
b1010011 9
b100 :
1=
b1010011 @
b11 C
b11 I
b1001111 J
b11 L
b1001111 N
#880000
0!
0,
07
0=
#885000
1!
b1010100 #
b1010000 $
b1010001 %
b1010000 &
1,
b1010100 /
b0 0
b1010000 2
17
b1010100 9
b100 :
1=
b1010100 @
b0 C
b0 I
b1010000 J
b0 L
b1010000 N
#890000
0!
0,
07
0=
#895000
1!
b1010101 #
b1010001 $
b1010010 %
b1010001 &
1,
b1010101 /
b1 0
b1010001 2
17
b1010101 9
b100 :
1=
b1010101 @
b1 C
b1 I
b1010001 J
b1 L
b1010001 N
#900000
0!
0,
07
0=
#905000
1!
b1010110 #
b1010010 $
b1010011 %
b1010010 &
1,
b1010110 /
b10 0
b1010010 2
17
b1010110 9
b100 :
1=
b1010110 @
b10 C
b10 I
b1010010 J
b10 L
b1010010 N
#910000
0!
0,
07
0=
#915000
1!
b1010111 #
b1010011 $
b1010100 %
b1010011 &
1,
b1010111 /
b11 0
b1010011 2
17
b1010111 9
b100 :
1=
b1010111 @
b11 C
b11 I
b1010011 J
b11 L
b1010011 N
#920000
0!
0,
07
0=
#925000
1!
b1011000 #
b1010100 $
b1010101 %
b1010100 &
1,
b1011000 /
b0 0
b1010100 2
17
b1011000 9
b100 :
1=
b1011000 @
b0 C
b0 I
b1010100 J
b0 L
b1010100 N
#930000
0!
0,
07
0=
#935000
1!
b1011001 #
b1010101 $
b1010110 %
b1010101 &
1,
b1011001 /
b1 0
b1010101 2
17
b1011001 9
b100 :
1=
b1011001 @
b1 C
b1 I
b1010101 J
b1 L
b1010101 N
#940000
0!
0,
07
0=
#945000
1!
b1011010 #
b1010110 $
b1010111 %
b1010110 &
1,
b1011010 /
b10 0
b1010110 2
17
b1011010 9
b100 :
1=
b1011010 @
b10 C
b10 I
b1010110 J
b10 L
b1010110 N
#950000
0!
0,
07
0=
#955000
1!
b1011011 #
b1010111 $
b1011000 %
b1010111 &
1,
b1011011 /
b11 0
b1010111 2
17
b1011011 9
b100 :
1=
b1011011 @
b11 C
b11 I
b1010111 J
b11 L
b1010111 N
#960000
0!
0,
07
0=
#965000
1!
b1011100 #
b1011000 $
b1011001 %
b1011000 &
1,
b1011100 /
b0 0
b1011000 2
17
b1011100 9
b100 :
1=
b1011100 @
b0 C
b0 I
b1011000 J
b0 L
b1011000 N
#970000
0!
0,
07
0=
#975000
1!
b1011101 #
b1011001 $
b1011010 %
b1011001 &
1,
b1011101 /
b1 0
b1011001 2
17
b1011101 9
b100 :
1=
b1011101 @
b1 C
b1 I
b1011001 J
b1 L
b1011001 N
#980000
0!
0,
07
0=
#985000
1!
b1011110 #
b1011010 $
b1011011 %
b1011010 &
1,
b1011110 /
b10 0
b1011010 2
17
b1011110 9
b100 :
1=
b1011110 @
b10 C
b10 I
b1011010 J
b10 L
b1011010 N
#990000
0!
0,
07
0=
#995000
1!
b1011111 #
b1011011 $
b1011100 %
b1011011 &
1,
b1011111 /
b11 0
b1011011 2
17
b1011111 9
b100 :
1=
b1011111 @
b11 C
b11 I
b1011011 J
b11 L
b1011011 N
