user/sim/Basic/Interface/spi_tb.vcd
$date
	Wed Jun 26 11:27:23 2024
$end
$version
	Icarus Verilog
$end
$timescale
	1s
$end
$scope module spi_tb $end
$var wire 1 ! spi_miso $end
$var wire 1 " spi_mosi $end
$var wire 1 # spi_clk $end
$var wire 1 $ ready $end
$var wire 8 % data_receive [7:0] $end
$var wire 1 & CS_output $end
$var reg 1 ' CPHA $end
$var reg 1 ( CPOL $end
$var reg 1 ) CS_input $end
$var reg 1 * clk_50m $end
$var reg 8 + data_send [7:0] $end
$var reg 1 , rst_n $end
$var reg 1 - valid $end
$scope module u1_spi $end
$var wire 1 ' CPHA $end
$var wire 1 ( CPOL $end
$var wire 1 ) CS_input $end
$var wire 1 & CS_output $end
$var wire 1 * clk $end
$var wire 8 . data_send [7:0] $end
$var wire 1 , rst_n $end
$var wire 1 ! spi_miso $end
$var wire 1 - valid $end
$var reg 1 / act_flag $end
$var reg 10 0 cnt_divide [9:0] $end
$var reg 5 1 cnt_pulse [4:0] $end
$var reg 8 2 data_receive [7:0] $end
$var reg 8 3 data_send_reg [7:0] $end
$var reg 1 $ ready $end
$var reg 1 # spi_clk $end
$var reg 1 " spi_mosi $end
$upscope $end
$upscope $end
$enddefinitions $end
#0
$dumpvars
bx 3
b0 2
b0 1
b0 0
x/
b0 .
0-
0,
b0 +
1*
1)
1(
0'
1&
b0 %
0$
1#
1"
1!
$end
#10
0*
#20
bx 3
x/
1*
#30
0*
#40
bx 3
x/
1*
#50
0*
#60
bx 3
x/
1*
#70
0*
#80
bx 3
x/
1*
#90
0*
#100
bx 3
x/
1*
#110
0*
#120
bx 3
x/
1*
#130
0*
#140
bx 3
x/
1*
#150
0*
#160
bx 3
x/
1*
#170
0*
#180
bx 3
x/
1*
#190
0*
#200
1*
1,
#210
0*
#220
1*
#230
0*
#240
1*
#250
0*
#260
1*
#270
0*
#280
1*
#290
0*
#300
1*
#310
0*
#320
1*
#330
0*
#340
1*
#350
0*
#360
1*
#370
0*
#380
1*
#390
0*
#400
1/
b10101111 3
1*
b10101111 +
b10101111 .
1-
#410
0*
#420
b1 1
1*
0-
#430
0*
#440
b10 1
b10000000 %
b10000000 2
0#
1*
#450
0*
#460
0!
0"
1#
b11 1
1*
#470
0*
#480
b100 1
0#
1*
#490
0*
#500
1!
1"
1#
b101 1
1*
#510
0*
#520
b110 1
b10100000 %
b10100000 2
0#
1*
#530
0*
#540
0!
0"
1#
b111 1
1*
#550
0*
#560
b1000 1
0#
1*
#570
0*
#580
1!
1"
1#
b1001 1
1*
#590
0*
#600
b1010 1
b10101000 %
b10101000 2
0#
1*
#610
0*
#620
1#
b1011 1
1*
#630
0*
#640
b1100 1
b10101100 %
b10101100 2
0#
1*
#650
0*
#660
1#
b1101 1
1*
#670
0*
#680
b1110 1
b10101110 %
b10101110 2
0#
1*
#690
0*
#700
1#
b1111 1
1*
#710
0*
#720
b10000 1
b10101111 %
b10101111 2
0#
1*
#730
0*
#740
1#
b0 1
1$
0/
1*
#750
0*
#760
0$
1*
