user/sim/CPU/Bus/arbiter/sim/arbiter_rr4_sim.out
-------------------------------------------------
Module: Arbiter
Parameters:
	PORTS 			= 4
	ARB_TYPE_ROUND_ROBIN 	= 1
	ARB_BLOCK 		= 0
	ARB_BLOCK_ACK 		= 1
	ARB_LSB_HIGH_PRIORITY 	= 0
-------------------------------------------------
VCD info: dumpfile ./sim/arbiter_rr4_tb.vcd opened for output.
Time: 0, Request: 0000, Acknowledge: 0000, Grant: 0000, Grant Valid: 0, Grant Encoded: 0

-----------------------------------------------------------------------------
Time: 1,                                                    Initial state
-----------------------------------------------------------------------------

-----------------------------------------------------------------------------
Time: 31,                                      Test Case 1: Single request
-----------------------------------------------------------------------------
Time: 40, Request: 0001, Acknowledge: 0000, Grant: 0000, Grant Valid: 0, Grant Encoded: 0
Time: 41, Request: 0001, Acknowledge: 0000, Grant: 0001, Grant Valid: 1, Grant Encoded: 0
Time: 50, Request: 0000, Acknowledge: 0000, Grant: 0001, Grant Valid: 1, Grant Encoded: 0
Time: 51, Request: 0000, Acknowledge: 0000, Grant: 0000, Grant Valid: 0, Grant Encoded: 0

-----------------------------------------------------------------------------
Time: 61,                                   Test Case 2: Multiple requests
-----------------------------------------------------------------------------
Time: 70, Request: 1010, Acknowledge: 0000, Grant: 0000, Grant Valid: 0, Grant Encoded: 0
Time: 71, Request: 1010, Acknowledge: 0000, Grant: 1000, Grant Valid: 1, Grant Encoded: 3
Time: 73, Request: 1010, Acknowledge: 0000, Grant: 0010, Grant Valid: 1, Grant Encoded: 1
Time: 75, Request: 1010, Acknowledge: 0000, Grant: 1000, Grant Valid: 1, Grant Encoded: 3
Time: 77, Request: 1010, Acknowledge: 0000, Grant: 0010, Grant Valid: 1, Grant Encoded: 1
Time: 79, Request: 1010, Acknowledge: 0000, Grant: 1000, Grant Valid: 1, Grant Encoded: 3
Time: 80, Request: 0101, Acknowledge: 0000, Grant: 1000, Grant Valid: 1, Grant Encoded: 3
Time: 81, Request: 0101, Acknowledge: 0000, Grant: 0100, Grant Valid: 1, Grant Encoded: 2
Time: 83, Request: 0101, Acknowledge: 0000, Grant: 0001, Grant Valid: 1, Grant Encoded: 0
Time: 85, Request: 0101, Acknowledge: 0000, Grant: 0100, Grant Valid: 1, Grant Encoded: 2
Time: 87, Request: 0101, Acknowledge: 0000, Grant: 0001, Grant Valid: 1, Grant Encoded: 0
Time: 89, Request: 0101, Acknowledge: 0000, Grant: 0100, Grant Valid: 1, Grant Encoded: 2
Time: 90, Request: 0000, Acknowledge: 0000, Grant: 0100, Grant Valid: 1, Grant Encoded: 2
Time: 91, Request: 0000, Acknowledge: 0000, Grant: 0000, Grant Valid: 0, Grant Encoded: 0

-----------------------------------------------------------------------------
Time: 101,                             Test Case 4: Round-robin arbitration
-----------------------------------------------------------------------------
Time: 110, Request: 1111, Acknowledge: 0000, Grant: 0000, Grant Valid: 0, Grant Encoded: 0
Time: 111, Request: 1111, Acknowledge: 0000, Grant: 0010, Grant Valid: 1, Grant Encoded: 1
Time: 113, Request: 1111, Acknowledge: 0000, Grant: 0001, Grant Valid: 1, Grant Encoded: 0
Time: 115, Request: 1111, Acknowledge: 0000, Grant: 1000, Grant Valid: 1, Grant Encoded: 3
Time: 117, Request: 1111, Acknowledge: 0000, Grant: 0100, Grant Valid: 1, Grant Encoded: 2
Time: 119, Request: 1111, Acknowledge: 0000, Grant: 0010, Grant Valid: 1, Grant Encoded: 1
Time: 121, Request: 1111, Acknowledge: 0000, Grant: 0001, Grant Valid: 1, Grant Encoded: 0
Time: 123, Request: 1111, Acknowledge: 0000, Grant: 1000, Grant Valid: 1, Grant Encoded: 3
Time: 125, Request: 1111, Acknowledge: 0000, Grant: 0100, Grant Valid: 1, Grant Encoded: 2
Time: 127, Request: 1111, Acknowledge: 0000, Grant: 0010, Grant Valid: 1, Grant Encoded: 1
Time: 129, Request: 1111, Acknowledge: 0000, Grant: 0001, Grant Valid: 1, Grant Encoded: 0
Time: 131, Request: 1111, Acknowledge: 0000, Grant: 1000, Grant Valid: 1, Grant Encoded: 3
Time: 133, Request: 1111, Acknowledge: 0000, Grant: 0100, Grant Valid: 1, Grant Encoded: 2
Time: 135, Request: 1111, Acknowledge: 0000, Grant: 0010, Grant Valid: 1, Grant Encoded: 1
Time: 137, Request: 1111, Acknowledge: 0000, Grant: 0001, Grant Valid: 1, Grant Encoded: 0
Time: 139, Request: 1111, Acknowledge: 0000, Grant: 1000, Grant Valid: 1, Grant Encoded: 3
Time: 141, Request: 1111, Acknowledge: 0000, Grant: 0100, Grant Valid: 1, Grant Encoded: 2
Time: 143, Request: 1111, Acknowledge: 0000, Grant: 0010, Grant Valid: 1, Grant Encoded: 1
Time: 145, Request: 1111, Acknowledge: 0000, Grant: 0001, Grant Valid: 1, Grant Encoded: 0
Time: 147, Request: 1111, Acknowledge: 0000, Grant: 1000, Grant Valid: 1, Grant Encoded: 3
Time: 149, Request: 1111, Acknowledge: 0000, Grant: 0100, Grant Valid: 1, Grant Encoded: 2
Time: 151, Request: 1111, Acknowledge: 0000, Grant: 0010, Grant Valid: 1, Grant Encoded: 1
Time: 153, Request: 1111, Acknowledge: 0000, Grant: 0001, Grant Valid: 1, Grant Encoded: 0
Time: 155, Request: 1111, Acknowledge: 0000, Grant: 1000, Grant Valid: 1, Grant Encoded: 3
Time: 157, Request: 1111, Acknowledge: 0000, Grant: 0100, Grant Valid: 1, Grant Encoded: 2
Time: 159, Request: 1111, Acknowledge: 0000, Grant: 0010, Grant Valid: 1, Grant Encoded: 1
Time: 160, Request: 0000, Acknowledge: 0000, Grant: 0010, Grant Valid: 1, Grant Encoded: 1
Time: 161, Request: 0000, Acknowledge: 0000, Grant: 0000, Grant Valid: 0, Grant Encoded: 0
