user/sim/CPU/Bus/arbiter/sim/arbiter_rr4_tb.vcd
$date
	Tue Jun 11 22:40:10 2024
$end
$version
	Icarus Verilog
$end
$timescale
	1ps
$end
$scope module arbiter_rr4_tb $end
$var wire 1 ! grant_valid $end
$var wire 2 " grant_encoded [1:0] $end
$var wire 4 # grant [3:0] $end
$var reg 4 $ acknowledge [3:0] $end
$var reg 1 % clk $end
$var reg 4 & request [3:0] $end
$var reg 1 ' rst $end
$var reg 512 ( test_case [511:0] $end
$scope module uut $end
$var wire 4 ) acknowledge [3:0] $end
$var wire 1 % clk $end
$var wire 4 * grant [3:0] $end
$var wire 2 + grant_encoded [1:0] $end
$var wire 1 ! grant_valid $end
$var wire 4 , request [3:0] $end
$var wire 1 ' rst $end
$var wire 1 - request_valid $end
$var wire 4 . request_mask [3:0] $end
$var wire 2 / request_index [1:0] $end
$var wire 1 0 masked_request_valid $end
$var wire 4 1 masked_request_mask [3:0] $end
$var wire 2 2 masked_request_index [1:0] $end
$var reg 2 3 grant_encoded_next [1:0] $end
$var reg 2 4 grant_encoded_reg [1:0] $end
$var reg 4 5 grant_next [3:0] $end
$var reg 4 6 grant_reg [3:0] $end
$var reg 1 7 grant_valid_next $end
$var reg 1 8 grant_valid_reg $end
$var reg 4 9 mask_next [3:0] $end
$var reg 4 : mask_reg [3:0] $end
$scope module priority_encoder_inst $end
$var wire 4 ; input_unencoded [3:0] $end
$var wire 1 - output_valid $end
$var wire 4 < output_unencoded [3:0] $end
$var wire 2 = output_encoded [1:0] $end
$var wire 4 > input_padded [3:0] $end
$scope begin loop_in[0] $end
$scope begin genblk3 $end
$upscope $end
$upscope $end
$scope begin loop_in[1] $end
$scope begin genblk3 $end
$upscope $end
$upscope $end
$scope begin loop_levels[1] $end
$scope begin loop_compress[0] $end
$scope begin genblk7 $end
$upscope $end
$upscope $end
$upscope $end
$upscope $end
$scope module priority_encoder_masked $end
$var wire 4 ? input_unencoded [3:0] $end
$var wire 1 0 output_valid $end
$var wire 4 @ output_unencoded [3:0] $end
$var wire 2 A output_encoded [1:0] $end
$var wire 4 B input_padded [3:0] $end
$scope begin loop_in[0] $end
$scope begin genblk3 $end
$upscope $end
$upscope $end
$scope begin loop_in[1] $end
$scope begin genblk3 $end
$upscope $end
$upscope $end
$scope begin loop_levels[1] $end
$scope begin loop_compress[0] $end
$scope begin genblk7 $end
$upscope $end
$upscope $end
$upscope $end
$upscope $end
$upscope $end
$upscope $end
$enddefinitions $end
#0
$dumpvars
b0 B
b0 A
b0 @
b0 ?
b0 >
b0 =
b0 <
b0 ;
b0 :
b0 9
08
07
b0 6
b0 5
b0 4
b0 3
b0 2
b0 1
00
b0 /
b0 .
0-
b0 ,
b0 +
b0 *
b0 )
b1001001011011100110100101110100011010010110000101101100001000000111001101110100011000010111010001100101 (
1'
b0 &
0%
b0 $
b0 #
b0 "
0!
$end
#1000
1%
#2000
0%
#3000
1%
#4000
0%
#5000
1%
#6000
0%
#7000
1%
#8000
0%
#9000
1%
#10000
0%
#11000
1%
#12000
0%
#13000
1%
#14000
0%
#15000
1%
#16000
0%
#17000
1%
#18000
0%
#19000
1%
#20000
0%
0'
#21000
1%
#22000
0%
#23000
1%
#24000
0%
#25000
1%
#26000
0%
#27000
1%
#28000
0%
#29000
1%
#30000
0%
b10101000110010101110011011101000010000001000011011000010111001101100101001000000011000100111010001000000101001101101001011011100110011101101100011001010010000001110010011001010111000101110101011001010111001101110100 (
#31000
1%
#32000
0%
#33000
1%
#34000
0%
#35000
1%
#36000
0%
#37000
1%
#38000
0%
#39000
1%
#40000
b1 5
b1 .
b1 <
17
1-
0%
b1 >
b1 &
b1 ,
b1 ;
#41000
17
b1 5
1!
18
b1 #
b1 *
b1 6
1%
#42000
0%
#43000
1%
#44000
0%
#45000
1%
#46000
0%
#47000
1%
#48000
0%
#49000
1%
#50000
b0 .
b0 <
0-
07
b0 5
0%
b0 >
b0 &
b0 ,
b0 ;
#51000
0!
08
b0 #
b0 *
b0 6
1%
#52000
0%
#53000
1%
#54000
0%
#55000
1%
#56000
0%
#57000
1%
#58000
0%
#59000
1%
#60000
0%
b10101000110010101110011011101000010000001000011011000010111001101100101001000000011001000111010001000000100110101110101011011000111010001101001011100000110110001100101001000000111001001100101011100010111010101100101011100110111010001110011 (
#61000
1%
#62000
0%
#63000
1%
#64000
0%
#65000
1%
#66000
0%
#67000
1%
#68000
0%
#69000
1%
#70000
b111 9
b11 3
b11 /
b11 =
b1000 5
b1000 .
b1000 <
17
1-
0%
b1010 >
b1010 &
b1010 ,
b1010 ;
#71000
b1 2
b1 A
b10 1
b10 @
b1 9
10
b10 B
b10 ?
b1 3
17
b10 5
b111 :
b11 "
b11 +
b11 4
1!
18
b1000 #
b1000 *
b1000 6
1%
#72000
0%
#73000
b0 2
b0 A
b0 1
b0 @
b111 9
00
b0 B
b0 ?
b11 3
17
b1000 5
b1 :
b1 "
b1 +
b1 4
b10 #
b10 *
b10 6
1%
#74000
0%
#75000
b1 2
b1 A
b10 1
b10 @
b1 9
10
b10 B
b10 ?
b1 3
17
b10 5
b111 :
b11 "
b11 +
b11 4
b1000 #
b1000 *
b1000 6
1%
#76000
0%
#77000
b0 2
b0 A
b0 1
b0 @
b111 9
00
b0 B
b0 ?
b11 3
17
b1000 5
b1 :
b1 "
b1 +
b1 4
b10 #
b10 *
b10 6
1%
#78000
0%
#79000
b1 2
b1 A
b10 1
b10 @
b1 9
10
b10 B
b10 ?
b1 3
17
b10 5
b111 :
b11 "
b11 +
b11 4
b1000 #
b1000 *
b1000 6
1%
#80000
b100 1
b100 @
b10 2
b10 A
b100 .
b100 <
b10 /
b10 =
b101 B
b101 ?
b11 9
b10 3
17
b100 5
0%
b101 >
b101 &
b101 ,
b101 ;
#81000
b1 1
b1 @
b0 9
b0 2
b0 A
b1 B
b1 ?
b0 3
17
b1 5
b11 :
b10 "
b10 +
b10 4
b100 #
b100 *
b100 6
1%
#82000
0%
#83000
b0 1
b0 @
b11 9
b10 3
00
b0 B
b0 ?
17
b100 5
b0 :
b0 "
b0 +
b0 4
b1 #
b1 *
b1 6
1%
#84000
0%
#85000
b1 1
b1 @
b0 9
10
b1 B
b1 ?
b0 3
17
b1 5
b11 :
b10 "
b10 +
b10 4
b100 #
b100 *
b100 6
1%
#86000
0%
#87000
b0 1
b0 @
b11 9
b10 3
00
b0 B
b0 ?
17
b100 5
b0 :
b0 "
b0 +
b0 4
b1 #
b1 *
b1 6
1%
#88000
0%
#89000
b1 1
b1 @
b0 9
10
b1 B
b1 ?
b0 3
17
b1 5
b11 :
b10 "
b10 +
b10 4
b100 #
b100 *
b100 6
1%
#90000
b0 1
b0 @
00
b0 /
b0 =
b0 .
b0 <
0-
b0 B
b0 ?
b11 9
07
b0 5
0%
b0 >
b0 &
b0 ,
b0 ;
#91000
b0 "
b0 +
b0 4
0!
08
b0 #
b0 *
b0 6
1%
#92000
0%
#93000
1%
#94000
0%
#95000
1%
#96000
0%
#97000
1%
#98000
0%
#99000
1%
#100000
0%
b10101000110010101110011011101000010000001000011011000010111001101100101001000000011010000111010001000000101001001101111011101010110111001100100001011010111001001101111011000100110100101101110001000000110000101110010011000100110100101110100011100100110000101110100011010010110111101101110 (
#101000
1%
#102000
0%
#103000
1%
#104000
0%
#105000
1%
#106000
0%
#107000
1%
#108000
0%
#109000
1%
#110000
b1 3
b1 2
b1 A
b10 5
b10 1
b10 @
b11 /
b11 =
10
b1000 .
b1000 <
b1 9
17
1-
b11 B
b11 ?
0%
b1111 >
b1111 &
b1111 ,
b1111 ;
#111000
b1 1
b1 @
b0 9
b0 2
b0 A
b1 B
b1 ?
b0 3
17
b1 5
b1 :
b1 "
b1 +
b1 4
1!
18
b10 #
b10 *
b10 6
1%
#112000
0%
#113000
b0 1
b0 @
b111 9
b11 3
00
b0 B
b0 ?
17
b1000 5
b0 :
b0 "
b0 +
b0 4
b1 #
b1 *
b1 6
1%
#114000
0%
#115000
b10 2
b10 A
b100 1
b100 @
b11 9
10
b111 B
b111 ?
b10 3
17
b100 5
b111 :
b11 "
b11 +
b11 4
b1000 #
b1000 *
b1000 6
1%
#116000
0%
#117000
b10 1
b10 @
b1 9
b1 2
b1 A
b11 B
b11 ?
b1 3
17
b10 5
b11 :
b10 "
b10 +
b10 4
b100 #
b100 *
b100 6
1%
#118000
0%
#119000
b1 1
b1 @
b0 9
b0 2
b0 A
b1 B
b1 ?
b0 3
17
b1 5
b1 :
b1 "
b1 +
b1 4
b10 #
b10 *
b10 6
1%
#120000
0%
#121000
b0 1
b0 @
b111 9
b11 3
00
b0 B
b0 ?
17
b1000 5
b0 :
b0 "
b0 +
b0 4
b1 #
b1 *
b1 6
1%
#122000
0%
#123000
b10 2
b10 A
b100 1
b100 @
b11 9
10
b111 B
b111 ?
b10 3
17
b100 5
b111 :
b11 "
b11 +
b11 4
b1000 #
b1000 *
b1000 6
1%
#124000
0%
#125000
b10 1
b10 @
b1 9
b1 2
b1 A
b11 B
b11 ?
b1 3
17
b10 5
b11 :
b10 "
b10 +
b10 4
b100 #
b100 *
b100 6
1%
#126000
0%
#127000
b1 1
b1 @
b0 9
b0 2
b0 A
b1 B
b1 ?
b0 3
17
b1 5
b1 :
b1 "
b1 +
b1 4
b10 #
b10 *
b10 6
1%
#128000
0%
#129000
b0 1
b0 @
b111 9
b11 3
00
b0 B
b0 ?
17
b1000 5
b0 :
b0 "
b0 +
b0 4
b1 #
b1 *
b1 6
1%
#130000
0%
#131000
b10 2
b10 A
b100 1
b100 @
b11 9
10
b111 B
b111 ?
b10 3
17
b100 5
b111 :
b11 "
b11 +
b11 4
b1000 #
b1000 *
b1000 6
1%
#132000
0%
#133000
b10 1
b10 @
b1 9
b1 2
b1 A
b11 B
b11 ?
b1 3
17
b10 5
b11 :
b10 "
b10 +
b10 4
b100 #
b100 *
b100 6
1%
#134000
0%
#135000
b1 1
b1 @
b0 9
b0 2
b0 A
b1 B
b1 ?
b0 3
17
b1 5
b1 :
b1 "
b1 +
b1 4
b10 #
b10 *
b10 6
1%
#136000
0%
#137000
b0 1
b0 @
b111 9
b11 3
00
b0 B
b0 ?
17
b1000 5
b0 :
b0 "
b0 +
b0 4
b1 #
b1 *
b1 6
1%
#138000
0%
#139000
b10 2
b10 A
b100 1
b100 @
b11 9
10
b111 B
b111 ?
b10 3
17
b100 5
b111 :
b11 "
b11 +
b11 4
b1000 #
b1000 *
b1000 6
1%
#140000
0%
#141000
b10 1
b10 @
b1 9
b1 2
b1 A
b11 B
b11 ?
b1 3
17
b10 5
b11 :
b10 "
b10 +
b10 4
b100 #
b100 *
b100 6
1%
#142000
0%
#143000
b1 1
b1 @
b0 9
b0 2
b0 A
b1 B
b1 ?
b0 3
17
b1 5
b1 :
b1 "
b1 +
b1 4
b10 #
b10 *
b10 6
1%
#144000
0%
#145000
b0 1
b0 @
b111 9
b11 3
00
b0 B
b0 ?
17
b1000 5
b0 :
b0 "
b0 +
b0 4
b1 #
b1 *
b1 6
1%
#146000
0%
#147000
b10 2
b10 A
b100 1
b100 @
b11 9
10
b111 B
b111 ?
b10 3
17
b100 5
b111 :
b11 "
b11 +
b11 4
b1000 #
b1000 *
b1000 6
1%
#148000
0%
#149000
b10 1
b10 @
b1 9
b1 2
b1 A
b11 B
b11 ?
b1 3
17
b10 5
b11 :
b10 "
b10 +
b10 4
b100 #
b100 *
b100 6
1%
#150000
0%
#151000
b1 1
b1 @
b0 9
b0 2
b0 A
b1 B
b1 ?
b0 3
17
b1 5
b1 :
b1 "
b1 +
b1 4
b10 #
b10 *
b10 6
1%
#152000
0%
#153000
b0 1
b0 @
b111 9
b11 3
00
b0 B
b0 ?
17
b1000 5
b0 :
b0 "
b0 +
b0 4
b1 #
b1 *
b1 6
1%
#154000
0%
#155000
b10 2
b10 A
b100 1
b100 @
b11 9
10
b111 B
b111 ?
b10 3
17
b100 5
b111 :
b11 "
b11 +
b11 4
b1000 #
b1000 *
b1000 6
1%
#156000
0%
#157000
b10 1
b10 @
b1 9
b1 2
b1 A
b11 B
b11 ?
b1 3
17
b10 5
b11 :
b10 "
b10 +
b10 4
b100 #
b100 *
b100 6
1%
#158000
0%
#159000
b1 1
b1 @
b0 9
b0 2
b0 A
b1 B
b1 ?
b0 3
17
b1 5
b1 :
b1 "
b1 +
b1 4
b10 #
b10 *
b10 6
1%
#160000
b0 1
b0 @
00
b0 /
b0 =
b0 .
b0 <
0-
b0 B
b0 ?
b1 9
07
b0 5
0%
b0 >
b0 &
b0 ,
b0 ;
#161000
b0 "
b0 +
b0 4
0!
08
b0 #
b0 *
b0 6
1%
