user/sim/Basic/Interface/Low-Speed/UART/old/uart_tx_tb.vcd
$date
	Fri Jun 28 08:56:49 2024
$end
$version
	Icarus Verilog
$end
$timescale
	1s
$end
$scope module uart_tx_tb $end
$var reg 1 ! CLK_50M $end
$var reg 1 " RST $end
$var reg 8 # data [7:0] $end
$var reg 1 $ valid $end
$scope module u1_uart_tx $end
$var wire 1 ! clk $end
$var wire 8 % data [7:0] $end
$var wire 1 " rst $end
$var wire 1 $ valid $end
$var reg 4 & bit_cnt [3:0] $end
$var reg 16 ' cnt_bps [15:0] $end
$var reg 1 ( ready $end
$var reg 1 ) tx $end
$var reg 1 * tx_flag $end
$upscope $end
$upscope $end
$enddefinitions $end
#0
$dumpvars
0*
1)
0(
b0 '
b0 &
b0 %
0$
b0 #
1"
0!
$end
#10
1!
#20
0!
#30
1!
#40
0!
#50
1!
#60
0!
#70
1!
#80
0!
#90
1!
#100
0!
b10111001 #
b10111001 %
1$
0"
#110
1*
1!
#120
0!
0$
#130
b1 '
0)
1!
#140
0!
#150
b10 '
1!
#160
0!
#170
b11 '
1!
#180
0!
#190
b100 '
1!
#200
0!
#210
b101 '
1!
#220
0!
#230
b110 '
1!
#240
0!
#250
b111 '
1!
#260
0!
#270
b1000 '
1!
#280
0!
#290
b1001 '
1!
#300
0!
#310
b1 &
b0 '
1!
#320
0!
#330
b1 '
1)
1!
#340
0!
#350
b10 '
1!
#360
0!
#370
b11 '
1!
#380
0!
#390
b100 '
1!
#400
0!
#410
b101 '
1!
#420
0!
#430
b110 '
1!
#440
0!
#450
b111 '
1!
#460
0!
#470
b1000 '
1!
#480
0!
#490
b1001 '
1!
#500
0!
#510
b10 &
b0 '
1!
#520
0!
#530
b1 '
0)
1!
#540
0!
#550
b10 '
1!
#560
0!
#570
b11 '
1!
#580
0!
#590
b100 '
1!
#600
0!
#610
b101 '
1!
#620
0!
#630
b110 '
1!
#640
0!
#650
b111 '
1!
#660
0!
#670
b1000 '
1!
#680
0!
#690
b1001 '
1!
#700
0!
#710
b11 &
b0 '
1!
#720
0!
#730
b1 '
1!
#740
0!
#750
b10 '
1!
#760
0!
#770
b11 '
1!
#780
0!
#790
b100 '
1!
#800
0!
#810
b101 '
1!
#820
0!
#830
b110 '
1!
#840
0!
#850
b111 '
1!
#860
0!
#870
b1000 '
1!
#880
0!
#890
b1001 '
1!
#900
0!
#910
b100 &
b0 '
1!
#920
0!
#930
b1 '
1)
1!
#940
0!
#950
b10 '
1!
#960
0!
#970
b11 '
1!
#980
0!
#990
b100 '
1!
#1000
0!
#1010
b101 '
1!
#1020
0!
#1030
b110 '
1!
#1040
0!
#1050
b111 '
1!
#1060
0!
#1070
b1000 '
1!
#1080
0!
#1090
b1001 '
1!
#1100
0!
#1110
b101 &
b0 '
1!
#1120
0!
#1130
b1 '
1!
#1140
0!
#1150
b10 '
1!
#1160
0!
#1170
b11 '
1!
#1180
0!
#1190
b100 '
1!
#1200
0!
#1210
b101 '
1!
#1220
0!
#1230
b110 '
1!
#1240
0!
#1250
b111 '
1!
#1260
0!
#1270
b1000 '
1!
#1280
0!
#1290
b1001 '
1!
#1300
0!
#1310
b110 &
b0 '
1!
#1320
0!
#1330
b1 '
1!
#1340
0!
#1350
b10 '
1!
#1360
0!
#1370
b11 '
1!
#1380
0!
#1390
b100 '
1!
#1400
0!
#1410
b101 '
1!
#1420
0!
#1430
b110 '
1!
#1440
0!
#1450
b111 '
1!
#1460
0!
#1470
b1000 '
1!
#1480
0!
#1490
b1001 '
1!
#1500
0!
#1510
b111 &
b0 '
1!
#1520
0!
#1530
b1 '
0)
1!
#1540
0!
#1550
b10 '
1!
#1560
0!
#1570
b11 '
1!
#1580
0!
#1590
b100 '
1!
#1600
0!
#1610
b101 '
1!
#1620
0!
#1630
b110 '
1!
#1640
0!
#1650
b111 '
1!
#1660
0!
#1670
b1000 '
1!
#1680
0!
#1690
b1001 '
1!
#1700
0!
#1710
b1000 &
b0 '
1!
#1720
0!
#1730
b1 '
1)
1!
#1740
0!
#1750
b10 '
1!
#1760
0!
#1770
b11 '
1!
#1780
0!
#1790
b100 '
1!
#1800
0!
#1810
b101 '
1!
#1820
0!
#1830
b110 '
1!
#1840
0!
#1850
b111 '
1!
#1860
0!
#1870
b1000 '
1!
#1880
0!
#1890
b1001 '
1!
#1900
0!
#1910
b1001 &
b0 '
1!
#1920
0!
#1930
b1 '
1!
#1940
0!
#1950
b10 '
1!
#1960
0!
#1970
b11 '
1!
#1980
0!
#1990
b100 '
1!
#2000
0!
#2010
b101 '
1!
#2020
0!
#2030
b110 '
1!
#2040
0!
#2050
b111 '
1!
#2060
0!
#2070
b1000 '
1!
#2080
0!
#2090
b1001 '
1!
#2100
0!
#2110
1(
b0 &
b0 '
0*
1!
#2120
0!
#2130
0(
1!
