user/sim/Basic/Math/FixedPoint/accuml/PhaseAcc.vcd
$date
   Mon Jul  1 20:34:06 2024
$end
$version
  2018.3
$end
$timescale
  1ps
$end
$scope module PhaseAcc_tb $end
$var reg 1 ! clock $end
$var reg 1 " reset $end
$var reg 1 # clr $end
$var reg 1 $ add_sub $end
$var reg 16 % D [15:0] $end
$var wire 17 & Q [16:0] $end
$var reg 16 ' phase [15:0] $end
$var parameter 32 ( WIDTH [31:0] $end
$scope module uut $end
$var wire 1 ) clock $end
$var wire 1 * reset $end
$var wire 1 + clr $end
$var wire 1 , add_sub $end
$var wire 16 - D [15:0] $end
$var wire 17 & Q [16:0] $end
$var reg 1 . count0 $end
$var reg 1 / count1 $end
$var reg 1 0 count2 $end
$var reg 17 1 b_tmp0 [16:0] $end
$var reg 17 2 b_tmp1 [16:0] $end
$var reg 17 3 b_tmp2 [16:0] $end
$var reg 4 4 sum0 [3:0] $end
$var reg 8 5 sum1 [7:0] $end
$var reg 12 6 sum2 [11:0] $end
$var reg 16 7 sum3 [15:0] $end
$var reg 1 8 add_sub0 $end
$var reg 1 9 add_sub1 $end
$var reg 1 : add_sub2 $end
$var reg 1 ; clr0 $end
$var reg 1 < clr1 $end
$var reg 1 = clr2 $end
$var parameter 32 > WIDTH [31:0] $end
$var parameter 32 ? DATA_WIDTH [31:0] $end
$upscope $end
$upscope $end
$enddefinitions $end
#0
$dumpvars
0!
1"
0#
0$
b0 %
b0 &
b0 '
b10000 (
0)
1*
0+
0,
b0 -
0.
0/
00
b0 1
b0 2
b0 3
b0 4
b0 5
b0 6
b0 7
08
09
0:
0;
0<
0=
b10000 >
b100 ?
$end
#5000
1!
b10011100010000 '
1)
#10000
0!
0)
#15000
1!
b100111000100000 '
1)
#20000
0!
0"
1#
b10011100010000 %
0)
0*
1+
b10011100010000 -
#25000
1!
b111010100110000 '
1)
b10011100010000 1
1;
#30000
0!
0#
0)
0+
#35000
1!
b1001110001000000 '
1)
b10011100010000 2
b1 5
0;
1<
#40000
0!
0)
#45000
1!
b1100001101010000 '
1)
b10011100010000 3
b10000 5
b111 6
0<
1=
#50000
0!
0)
#55000
1!
b10 &
b1110101001100000 '
1)
b100000 5
b11100010000 6
b10 7
0=
#60000
0!
0)
#65000
1!
b10011100010000 &
b1000101110000 '
1)
b110000 5
b111000100000 6
b10011100010000 7
#70000
0!
0)
#75000
1!
b100111000100000 &
b11100010000000 '
1)
10
b1000000 5
b10100110000 6
b100111000100000 7
#80000
0!
0)
#85000
1!
b111010100110000 &
b101111110010000 '
1)
00
b1010000 5
b110001000000 6
b111010100110000 7
#90000
0!
0)
#95000
1!
b1001110001000000 &
b1000011010100000 '
1)
10
b1100000 5
b1101010000 6
b1001110001000000 7
#100000
0!
0)
#105000
1!
b1100001101010000 &
b1010110110110000 '
1)
00
b1110000 5
b101001100000 6
b1100001101010000 7
#110000
0!
0)
#115000
1!
b1110101001100000 &
b1101010011000000 '
1)
10
b10000000 5
b101110000 6
b1110101001100000 7
#120000
0!
0)
#125000
1!
b1000101110000 &
b1111101111010000 '
1)
00
b10010000 5
b100010000000 6
b1000101110000 7
#130000
0!
0)
#135000
1!
b11100010000000 &
b10001011100000 '
1)
b10100000 5
b111110010000 6
b11100010000000 7
#140000
0!
0)
#145000
1!
b101111110010000 &
b100100111110000 '
1)
10
b10110000 5
b11010100000 6
b101111110010000 7
#150000
0!
0)
#155000
1!
b1000011010100000 &
b111000100000000 '
1)
00
b11000000 5
b110110110000 6
b1000011010100000 7
#160000
0!
0)
#165000
1!
b1010110110110000 &
b1001100000010000 '
1)
10
b11010000 5
b10011000000 6
b1010110110110000 7
#170000
0!
0)
#175000
1!
b1101010011000000 &
b1011111100100000 '
1)
00
b11100000 5
b101111010000 6
b1101010011000000 7
#180000
0!
0)
#185000
1!
b1111101111010000 &
b1110011000110000 '
1)
10
b11110000 5
b1011100000 6
b1111101111010000 7
#190000
0!
0)
#195000
1!
b10001011100000 &
b110101000000 '
1)
1/
00
b0 5
b100111110000 6
b10001011100000 7
#200000
0!
0)
#205000
1!
b100100111110000 &
b11010001010000 '
1)
0/
10
b10000 5
b100000000 6
b100100111110000 7
#210000
0!
0)
#215000
1!
b111000100000000 &
b101101101100000 '
1)
00
b100000 5
b100000010000 6
b111000100000000 7
#220000
0!
0)
#225000
1!
b1001100000010000 &
b1000001001110000 '
1)
b110000 5
b111100100000 6
b1001100000010000 7
#230000
0!
0)
#235000
1!
b1011111100100000 &
b1010100110000000 '
1)
10
b1000000 5
b11000110000 6
b1011111100100000 7
#240000
0!
0)
#245000
1!
b1110011000110000 &
b1101000010010000 '
1)
00
b1010000 5
b110101000000 6
b1110011000110000 7
#250000
0!
0)
#255000
1!
b110101000000 &
b1111011110100000 '
1)
10
b1100000 5
b10001010000 6
b110101000000 7
#260000
0!
0)
#265000
1!
b11010001010000 &
b1111010110000 '
1)
00
b1110000 5
b101101100000 6
b11010001010000 7
#270000
0!
0)
#275000
1!
b101101101100000 &
b100010111000000 '
1)
10
b10000000 5
b1001110000 6
b101101101100000 7
#280000
0!
0)
#285000
1!
b1000001001110000 &
b110110011010000 '
1)
00
b10010000 5
b100110000000 6
b1000001001110000 7
#290000
0!
0)
#295000
1!
b1010100110000000 &
b1001001111100000 '
1)
10
b10100000 5
b10010000 6
b1010100110000000 7
#300000
0!
0)
#305000
1!
b1101000010010000 &
b1011101011110000 '
1)
00
b10110000 5
b11110100000 6
b1101000010010000 7
#310000
0!
0)
#315000
1!
b1111011110100000 &
b1110001000000000 '
1)
b11000000 5
b111010110000 6
b1111011110100000 7
#320000
0!
0)
#325000
1!
b1111010110000 &
b100100010000 '
1)
10
b11010000 5
b10111000000 6
b1111010110000 7
#330000
0!
0)
#335000
1!
b100010111000000 &
b11000000100000 '
1)
00
b11100000 5
b110011010000 6
b100010111000000 7
#340000
0!
0)
#345000
1!
b110110011010000 &
b101011100110000 '
1)
10
b11110000 5
b1111100000 6
b110110011010000 7
#350000
0!
0)
#355000
1!
b1001001111100000 &
b111111001000000 '
1)
1/
00
b0 5
b101011110000 6
b1001001111100000 7
#360000
0!
0)
#365000
1!
b1011101011110000 &
b1010010101010000 '
1)
0/
10
b10000 5
b1000000000 6
b1011101011110000 7
#370000
0!
0)
#375000
1!
b1110001000000000 &
b1100110001100000 '
1)
00
b100000 5
b100100010000 6
b1110001000000000 7
#380000
0!
0)
#385000
1!
b100100010000 &
b1111001101110000 '
1)
10
b110000 5
b100000 6
b100100010000 7
#390000
0!
0)
#395000
1!
b11000000100000 &
b1101010000000 '
1)
00
b1000000 5
b11100110000 6
b11000000100000 7
#400000
0!
0)
#405000
1!
b101011100110000 &
b100000110010000 '
1)
b1010000 5
b111001000000 6
b101011100110000 7
#410000
0!
0)
#415000
1!
b111111001000000 &
b110100010100000 '
1)
10
b1100000 5
b10101010000 6
b111111001000000 7
#420000
0!
0)
#425000
1!
b1010010101010000 &
b1000111110110000 '
1)
00
b1110000 5
b110001100000 6
b1010010101010000 7
#430000
0!
0)
#435000
1!
b1100110001100000 &
b1011011011000000 '
1)
10
b10000000 5
b1101110000 6
b1100110001100000 7
#440000
0!
0)
#445000
1!
b1111001101110000 &
b1101110111010000 '
1)
00
b10010000 5
b101010000000 6
b1111001101110000 7
#450000
0!
0)
#455000
1!
b1101010000000 &
b10011100000 '
1)
10
b10100000 5
b110010000 6
b1101010000000 7
#460000
0!
0)
#465000
1!
b100000110010000 &
b10101111110000 '
1)
00
b10110000 5
b100010100000 6
b100000110010000 7
#470000
0!
0)
#475000
1!
b110100010100000 &
b101001100000000 '
1)
b11000000 5
b111110110000 6
b110100010100000 7
#480000
0!
0)
#485000
1!
b1000111110110000 &
b111101000010000 '
1)
10
b11010000 5
b11011000000 6
b1000111110110000 7
#490000
0!
0)
#495000
1!
b1011011011000000 &
b1010000100100000 '
1)
00
b11100000 5
b110111010000 6
b1011011011000000 7
#500000
0!
0)
#505000
1!
b1101110111010000 &
b1100100000110000 '
1)
10
b11110000 5
b10011100000 6
b1101110111010000 7
#510000
0!
0)
#515000
1!
b10011100000 &
b1110111101000000 '
1)
1/
00
b0 5
b101111110000 6
b10011100000 7
#520000
0!
0)
#525000
1!
b10101111110000 &
b1011001010000 '
1)
0/
10
b10000 5
b1100000000 6
b10101111110000 7
#530000
0!
0)
#535000
1!
b101001100000000 &
b11110101100000 '
1)
00
b100000 5
b101000010000 6
b101001100000000 7
#540000
0!
0)
#545000
1!
b111101000010000 &
b110010001110000 '
1)
10
b110000 5
b100100000 6
b111101000010000 7
#550000
0!
0)
#555000
1!
b1010000100100000 &
b1000101110000000 '
1)
00
b1000000 5
b100000110000 6
b1010000100100000 7
#560000
0!
0)
#565000
1!
b1100100000110000 &
b1011001010010000 '
1)
b1010000 5
b111101000000 6
b1100100000110000 7
#570000
0!
0)
#575000
1!
b1110111101000000 &
b1101100110100000 '
1)
10
b1100000 5
b11001010000 6
b1110111101000000 7
#580000
0!
0)
#585000
1!
b1011001010000 &
b10110000 '
1)
00
b1110000 5
b110101100000 6
b1011001010000 7
#590000
0!
0)
#595000
1!
b11110101100000 &
b10011111000000 '
1)
10
b10000000 5
b10001110000 6
b11110101100000 7
#600000
0!
0)
#605000
1!
b110010001110000 &
b100111011010000 '
1)
00
b10010000 5
b101110000000 6
b110010001110000 7
#610000
0!
0)
#615000
1!
b1000101110000000 &
b111010111100000 '
1)
10
b10100000 5
b1010010000 6
b1000101110000000 7
#620000
0!
0)
#625000
1!
b1011001010010000 &
b1001110011110000 '
1)
00
b10110000 5
b100110100000 6
b1011001010010000 7
#630000
0!
0)
#635000
1!
b1101100110100000 &
b1100010000000000 '
1)
10
b11000000 5
b10110000 6
b1101100110100000 7
#640000
0!
0)
#645000
1!
b10110000 &
b1110101100010000 '
1)
00
b11010000 5
b11111000000 6
b10110000 7
#650000
0!
0)
#655000
1!
b10011111000000 &
b1001000100000 '
1)
b11100000 5
b111011010000 6
b10011111000000 7
#660000
0!
0)
#665000
1!
b100111011010000 &
b11100100110000 '
1)
10
b11110000 5
b10111100000 6
b100111011010000 7
#670000
0!
0)
#675000
1!
b111010111100000 &
b110000001000000 '
1)
1/
00
b0 5
b110011110000 6
b111010111100000 7
#680000
0!
0)
#685000
1!
b1001110011110000 &
b1000011101010000 '
1)
0/
10
b10000 5
b10000000000 6
b1001110011110000 7
#690000
0!
0)
#695000
1!
b1100010000000000 &
b1010111001100000 '
1)
00
b100000 5
b101100010000 6
b1100010000000000 7
#700000
0!
0)
#705000
1!
b1110101100010000 &
b1101010101110000 '
1)
10
b110000 5
b1000100000 6
b1110101100010000 7
#710000
0!
0)
#715000
1!
b1001000100000 &
b1111110010000000 '
1)
00
b1000000 5
b100100110000 6
b1001000100000 7
#720000
0!
0)
#725000
1!
b11100100110000 &
b10001110010000 '
1)
10
b1010000 5
b1000000 6
b11100100110000 7
#730000
0!
0)
#735000
1!
b110000001000000 &
b100101010100000 '
1)
00
b1100000 5
b11101010000 6
b110000001000000 7
#740000
0!
0)
#745000
1!
b1000011101010000 &
b111000110110000 '
1)
b1110000 5
b111001100000 6
b1000011101010000 7
#750000
0!
0)
#755000
1!
b1010111001100000 &
b1001100011000000 '
1)
10
b10000000 5
b10101110000 6
b1010111001100000 7
#760000
0!
0)
#765000
1!
b1101010101110000 &
b1011111111010000 '
1)
00
b10010000 5
b110010000000 6
b1101010101110000 7
#770000
0!
0)
#775000
1!
b1111110010000000 &
b1110011011100000 '
1)
10
b10100000 5
b1110010000 6
b1111110010000000 7
#780000
0!
0)
#785000
1!
b10001110010000 &
b110111110000 '
1)
00
b10110000 5
b101010100000 6
b10001110010000 7
#790000
0!
0)
#795000
1!
b100101010100000 &
b11010100000000 '
1)
10
b11000000 5
b110110000 6
b100101010100000 7
#800000
0!
0)
#805000
1!
b111000110110000 &
b101110000010000 '
1)
00
b11010000 5
b100011000000 6
b111000110110000 7
#810000
0!
0)
#815000
1!
b1001100011000000 &
b1000001100100000 '
1)
b11100000 5
b111111010000 6
b1001100011000000 7
#820000
0!
0)
#825000
1!
b1011111111010000 &
b1010101000110000 '
1)
10
b11110000 5
b11011100000 6
b1011111111010000 7
#830000
0!
0)
#835000
1!
b1110011011100000 &
b1101000101000000 '
1)
1/
00
b0 5
b110111110000 6
b1110011011100000 7
#840000
0!
0)
#845000
1!
b110111110000 &
b1111100001010000 '
1)
0/
10
b10000 5
b10100000000 6
b110111110000 7
#850000
0!
0)
#855000
1!
b11010100000000 &
b1111101100000 '
1)
00
b100000 5
b110000010000 6
b11010100000000 7
#860000
0!
0)
#865000
1!
b101110000010000 &
b100011001110000 '
1)
10
b110000 5
b1100100000 6
b101110000010000 7
#870000
0!
0)
#875000
1!
b1000001100100000 &
b110110110000000 '
1)
00
b1000000 5
b101000110000 6
b1000001100100000 7
#880000
0!
0)
#885000
1!
b1010101000110000 &
b1001010010010000 '
1)
10
b1010000 5
b101000000 6
b1010101000110000 7
#890000
0!
0)
#895000
1!
b1101000101000000 &
b1011101110100000 '
1)
00
b1100000 5
b100001010000 6
b1101000101000000 7
#900000
0!
0)
#905000
1!
b1111100001010000 &
b1110001010110000 '
1)
b1110000 5
b111101100000 6
b1111100001010000 7
#910000
0!
0)
#915000
1!
b1111101100000 &
b100111000000 '
1)
10
b10000000 5
b11001110000 6
b1111101100000 7
#920000
0!
0)
#925000
1!
b100011001110000 &
b11000011010000 '
1)
00
b10010000 5
b110110000000 6
b100011001110000 7
#930000
0!
0)
#935000
1!
b110110110000000 &
b101011111100000 '
1)
10
b10100000 5
b10010010000 6
b110110110000000 7
#940000
0!
0)
#945000
1!
b1001010010010000 &
b111111011110000 '
1)
00
b10110000 5
b101110100000 6
b1001010010010000 7
#950000
0!
0)
#955000
1!
b1011101110100000 &
b1010011000000000 '
1)
10
b11000000 5
b1010110000 6
b1011101110100000 7
#960000
0!
0)
#965000
1!
b1110001010110000 &
b1100110100010000 '
1)
00
b11010000 5
b100111000000 6
b1110001010110000 7
#970000
0!
0)
#975000
1!
b100111000000 &
b1111010000100000 '
1)
10
b11100000 5
b11010000 6
b100111000000 7
#980000
0!
0)
#985000
1!
b11000011010000 &
b1101100110000 '
1)
00
b11110000 5
b11111100000 6
b11000011010000 7
#990000
0!
0)
#995000
1!
b101011111100000 &
b100001001000000 '
1)
1/
b0 5
b111011110000 6
b101011111100000 7
